%!PS-Adobe-3.0 EPSF-3.0
%%Creator: cairo 1.14.1 (http://cairographics.org)
%%CreationDate: Wed May 29 19:16:20 2019
%%Pages: 1
%%DocumentData: Clean7Bit
%%LanguageLevel: 2
%%BoundingBox: 0 0 600 600
%%EndComments
%%BeginProlog
save
50 dict begin
/q { gsave } bind def
/Q { grestore } bind def
/cm { 6 array astore concat } bind def
/w { setlinewidth } bind def
/J { setlinecap } bind def
/j { setlinejoin } bind def
/M { setmiterlimit } bind def
/d { setdash } bind def
/m { moveto } bind def
/l { lineto } bind def
/c { curveto } bind def
/h { closepath } bind def
/re { exch dup neg 3 1 roll 5 3 roll moveto 0 rlineto
      0 exch rlineto 0 rlineto closepath } bind def
/S { stroke } bind def
/f { fill } bind def
/f* { eofill } bind def
/n { newpath } bind def
/W { clip } bind def
/W* { eoclip } bind def
/BT { } bind def
/ET { } bind def
/pdfmark where { pop globaldict /?pdfmark /exec load put }
    { globaldict begin /?pdfmark /pop load def /pdfmark
    /cleartomark load def end } ifelse
/BDC { mark 3 1 roll /BDC pdfmark } bind def
/EMC { mark /EMC pdfmark } bind def
/cairo_store_point { /cairo_point_y exch def /cairo_point_x exch def } def
/Tj { show currentpoint cairo_store_point } bind def
/TJ {
  {
    dup
    type /stringtype eq
    { show } { -0.001 mul 0 cairo_font_matrix dtransform rmoveto } ifelse
  } forall
  currentpoint cairo_store_point
} bind def
/cairo_selectfont { cairo_font_matrix aload pop pop pop 0 0 6 array astore
    cairo_font exch selectfont cairo_point_x cairo_point_y moveto } bind def
/Tf { pop /cairo_font exch def /cairo_font_matrix where
      { pop cairo_selectfont } if } bind def
/Td { matrix translate cairo_font_matrix matrix concatmatrix dup
      /cairo_font_matrix exch def dup 4 get exch 5 get cairo_store_point
      /cairo_font where { pop cairo_selectfont } if } bind def
/Tm { 2 copy 8 2 roll 6 array astore /cairo_font_matrix exch def
      cairo_store_point /cairo_font where { pop cairo_selectfont } if } bind def
/g { setgray } bind def
/rg { setrgbcolor } bind def
/d1 { setcachedevice } bind def
%%EndProlog
%%BeginSetup
%%EndSetup
%%Page: 1 1
%%BeginPageSetup
%%PageBoundingBox: 0 0 600 600
%%EndPageSetup
q 0 0 600 600 rectclip q
0.611765 0.188235 0.831373 rg
0 300 m 0 600 l 600 600 l 600 0 l 0 0 l h
413.438 412.238 m 300.676 525 l 187.836 412.164 l 75 299.324 l 187.688 
186.563 l 300.375 73.797 l 526.203 299.477 l h
227.25 150.27 m 227.25 150.641 300.152 223.5 300.527 223.5 c 300.996 223.5
 373.5 150.887 373.5 150.414 c 373.5 150.188 340.594 150 300.375 150 c 260.156
 150 227.25 150.121 227.25 150.27 c h
150 299.25 m 150 340.086 150.188 373.5 150.418 373.5 c 150.645 373.5 167.52
 356.809 187.918 336.41 c 225 299.324 l 187.84 262.16 l 167.402 241.723 
150.527 225 150.34 225 c 150.152 225 150 258.414 150 299.25 c h
263.438 262.133 m 243.121 282.5 226.5 299.305 226.5 299.473 c 226.5 299.875
 300.125 373.5 300.527 373.5 c 300.695 373.5 317.52 356.809 337.918 336.41
 c 375 299.324 l 337.84 262.16 l 317.402 241.723 300.609 225.023 300.527
 225.051 c 300.441 225.078 283.754 241.766 263.438 262.133 c h
412.688 262.883 m 392.785 282.84 376.5 299.305 376.5 299.473 c 376.5 299.848
 449.359 372.75 449.73 372.75 c 449.879 372.75 450 339.844 450 299.625 c
 450 259.406 449.746 226.523 449.438 226.547 c 449.129 226.574 432.59 242.926
 412.688 262.883 c h
263.438 412.133 m 243.121 432.5 226.5 449.355 226.5 449.582 c 226.5 449.813
 259.914 450 300.75 450 c 341.586 450 375 449.848 375 449.66 c 375 449.309
 300.793 374.961 300.527 375.051 c 300.441 375.078 283.754 391.766 263.438
 412.133 c h
507.547 130.82 m 526.734 150 l 450 150 l 450 73.266 l 469.18 92.453 l 479.727
 103.008 496.992 120.273 507.547 130.82 c h
150 112.5 m 150 150 l 112.5 150 l 91.875 150 75 149.848 75 149.66 c 75 
149.117 148.813 75.156 149.438 75.074 c 149.746 75.035 150 91.875 150 112.5
 c h
150 486.75 m 150 506.961 149.813 523.5 149.586 523.5 c 149.355 523.5 132.82
 507.148 112.836 487.164 c 92.852 467.18 76.5 450.645 76.5 450.414 c 76.5
 450.188 93.039 450 113.25 450 c 150 450 l h
525 450.34 m 525 450.781 450.781 525 450.34 525 c 450.152 525 450 508.125
 450 487.5 c 450 450 l 487.5 450 l 508.125 450 525 450.152 525 450.34 c 
h
525 450.34 m f
0 300 m 0 600 l 600 600 l 600 0 l 0 0 l h
413.441 186.414 m 526.352 299.324 l 413.516 412.164 l 300.676 525 l 187.836
 412.164 l 75 299.324 l 187.688 186.488 l 249.664 124.426 300.41 73.617 
300.453 73.574 c 300.492 73.535 351.34 124.313 413.441 186.414 c h
263.852 186.828 m 300.676 223.656 l 337.086 187.242 l 357.113 167.215 373.5
 150.645 373.5 150.414 c 373.5 150.188 340.543 150 300.262 150 c 227.027
 150 l h
150 299.25 m 150 340.086 150.188 373.5 150.418 373.5 c 150.645 373.5 167.52
 356.809 187.918 336.41 c 225 299.324 l 187.84 262.16 l 167.402 241.723 
150.527 225 150.34 225 c 150.152 225 150 258.414 150 299.25 c h
263.359 262.211 m 226.344 299.324 l 263.512 336.488 l 300.676 373.656 l
 337.84 336.488 l 375 299.324 l 337.84 262.16 l 317.402 241.723 300.609 
225.023 300.527 225.051 c 300.441 225.078 283.719 241.801 263.359 262.211
 c h
412.609 262.961 m 376.344 299.328 l 413.172 336.148 l 450 372.973 l 450
 299.738 l 450 259.457 449.746 226.523 449.438 226.547 c 449.129 226.574
 432.555 242.961 412.609 262.961 c h
263.438 412.133 m 243.121 432.5 226.5 449.355 226.5 449.582 c 226.5 449.813
 259.914 450 300.75 450 c 341.586 450 375 449.848 375 449.66 c 375 449.309
 300.793 374.961 300.527 375.051 c 300.441 375.078 283.754 391.766 263.438
 412.133 c h
488.516 111.484 m 509.406 132.375 526.5 149.586 526.5 149.734 c 526.5 149.879
 509.289 150 488.25 150 c 450 150 l 450 111.75 l 450 90.711 450.121 73.5
 450.266 73.5 c 450.414 73.5 467.625 90.594 488.516 111.484 c h
150 112.5 m 150 150 l 112.5 150 l 91.875 150 75 149.848 75 149.66 c 75 
149.117 148.813 75.156 149.438 75.074 c 149.746 75.035 150 91.875 150 112.5
 c h
150 486.75 m 150 506.961 149.813 523.5 149.586 523.5 c 149.355 523.5 132.82
 507.148 112.836 487.164 c 92.852 467.18 76.5 450.645 76.5 450.414 c 76.5
 450.188 93.039 450 113.25 450 c 150 450 l h
525 450.34 m 525 450.781 450.781 525 450.34 525 c 450.152 525 450 508.125
 450 487.5 c 450 450 l 487.5 450 l 508.125 450 525 450.152 525 450.34 c 
h
525 450.34 m f
0 300 m 0 600 l 600 600 l 600 0 l 0 0 l h
413.738 186.41 m 526.648 299.32 l 451.242 374.73 l 407.016 418.961 375.496
 449.93 375.008 449.629 c 374.555 449.348 357.605 432.527 337.352 412.246
 c 300.52 375.375 l 263.441 412.5 l 226.359 449.625 l 300.68 449.816 l 341.555
 449.922 375 450.227 375 450.492 c 375 451.109 301.141 525 300.527 525 c
 299.938 525 75 300.063 75 299.473 c 75 298.859 148.891 225 149.508 225 
c 149.773 225 150.078 258.445 150.184 299.32 c 150.375 373.641 l 187.5 336.559
 l 224.625 299.48 l 187.754 262.648 l 167.473 242.395 150.652 225.445 150.371
 224.992 c 150.07 224.504 181.004 192.996 225.117 148.855 c 266.508 107.438
 300.477 73.539 300.602 73.527 c 300.723 73.512 351.637 124.309 413.738 
186.41 c h
228 150.336 m 228 150.52 244.352 167.023 264.332 187.012 c 300.664 223.348
 l 335.77 188.254 l 355.078 168.953 371.52 152.449 372.305 151.582 c 373.734
 150 l 300.867 150 l 260.789 150 228 150.152 228 150.336 c h
263.512 262.355 m 226.652 299.332 l 245.137 317.813 l 255.305 327.98 271.957
 344.633 282.145 354.824 c 300.66 373.355 l 337.645 336.418 l 374.625 299.484
 l 300.375 225.375 l h
413.137 262.84 m 376.648 299.328 l 449.625 372.297 l 449.82 335.773 l 449.926
 315.688 449.926 282.848 449.82 262.801 c 449.625 226.352 l h
488.664 111.336 m 509.473 132.145 526.5 149.359 526.5 149.586 c 526.5 149.813
 509.289 150 488.25 150 c 450 150 l 450 111.75 l 450 90.711 450.188 73.5
 450.414 73.5 c 450.641 73.5 467.855 90.527 488.664 111.336 c h
150 112.5 m 150 150 l 112.5 150 l 91.875 150 75 149.781 75 149.512 c 75
 148.84 148.738 75.051 149.438 75.023 c 149.746 75.012 150 91.875 150 112.5
 c h
150 487.125 m 150 507.543 149.848 524.25 149.66 524.25 c 149.215 524.25
 75.75 450.785 75.75 450.34 c 75.75 450.152 92.457 450 112.875 450 c 150
 450 l h
525 450.488 m 525 450.758 508.344 467.633 487.988 487.988 c 467.633 508.344
 450.758 525 450.488 525 c 450.219 525 450 508.125 450 487.5 c 450 450 l
 487.5 450 l 508.125 450 525 450.219 525 450.488 c h
525 450.488 m f
0 300 m 0 600 l 600 600 l 600 0 l 0 0 l h
413.695 186.371 m 533.34 306.016 527.027 299.348 523.652 302.473 c 523.117
 302.969 522.273 303.813 521.777 304.348 c 521.281 304.883 520.438 305.727
 519.902 306.223 c 519.367 306.719 518.523 307.563 518.027 308.098 c 517.531
 308.633 516.688 309.477 516.152 309.973 c 515.617 310.469 514.773 311.313
 514.277 311.848 c 513.781 312.383 512.938 313.227 512.402 313.723 c 511.867
 314.219 511.023 315.063 510.527 315.598 c 510.031 316.133 509.188 316.977
 508.652 317.473 c 508.117 317.969 507.273 318.813 506.777 319.348 c 506.281
 319.883 505.438 320.727 504.902 321.223 c 504.367 321.719 503.523 322.563
 503.027 323.098 c 502.531 323.633 501.688 324.477 501.152 324.973 c 500.617
 325.469 499.773 326.313 499.277 326.848 c 498.781 327.383 497.938 328.227
 497.402 328.723 c 496.867 329.219 496.023 330.063 495.527 330.598 c 495.031
 331.133 494.188 331.977 493.652 332.473 c 493.117 332.969 492.273 333.813
 491.777 334.348 c 491.281 334.883 490.438 335.727 489.902 336.223 c 489.367
 336.719 488.523 337.563 488.027 338.098 c 487.531 338.633 486.688 339.477
 486.152 339.973 c 485.617 340.469 484.773 341.313 484.277 341.848 c 483.781
 342.383 482.938 343.227 482.402 343.723 c 481.867 344.219 481.023 345.063
 480.527 345.598 c 480.031 346.133 479.188 346.977 478.652 347.473 c 478.117
 347.969 477.273 348.813 476.777 349.348 c 476.281 349.883 475.438 350.727
 474.902 351.223 c 474.367 351.719 473.523 352.563 473.027 353.098 c 472.531
 353.633 471.688 354.477 471.152 354.973 c 470.617 355.469 469.773 356.313
 469.277 356.848 c 468.781 357.383 467.938 358.227 467.402 358.723 c 466.867
 359.219 466.023 360.063 465.527 360.598 c 465.031 361.133 464.188 361.977
 463.652 362.473 c 463.117 362.969 462.273 363.813 461.777 364.348 c 461.281
 364.883 460.438 365.727 459.902 366.223 c 459.367 366.719 458.523 367.563
 458.027 368.098 c 457.531 368.633 456.688 369.477 456.152 369.973 c 455.617
 370.469 454.773 371.313 454.277 371.848 c 453.781 372.383 452.938 373.227
 452.402 373.723 c 451.867 374.219 451.023 375.063 450.527 375.598 c 450.031
 376.133 449.188 376.977 448.652 377.473 c 448.117 377.969 447.273 378.813
 446.777 379.348 c 446.281 379.883 445.438 380.727 444.902 381.223 c 444.367
 381.719 443.523 382.563 443.027 383.098 c 442.531 383.633 441.688 384.477
 441.152 384.973 c 440.617 385.469 439.773 386.313 439.277 386.848 c 438.781
 387.383 437.938 388.227 437.402 388.723 c 436.867 389.219 436.023 390.063
 435.527 390.598 c 435.031 391.133 434.188 391.977 433.652 392.473 c 433.117
 392.969 432.273 393.813 431.777 394.348 c 431.281 394.883 430.438 395.727
 429.902 396.223 c 429.367 396.719 428.523 397.563 428.027 398.098 c 427.531
 398.633 426.688 399.477 426.152 399.973 c 425.617 400.469 424.773 401.313
 424.277 401.848 c 423.781 402.383 422.938 403.227 422.402 403.723 c 421.867
 404.219 421.023 405.063 420.527 405.598 c 420.031 406.133 419.188 406.977
 418.652 407.473 c 418.117 407.969 417.273 408.813 416.777 409.348 c 416.281
 409.883 415.438 410.727 414.902 411.223 c 414.367 411.719 413.523 412.563
 413.027 413.098 c 412.531 413.633 411.688 414.477 411.152 414.973 c 410.617
 415.469 409.773 416.309 409.277 416.84 c 408.129 418.066 406.816 419.379
 405.59 420.527 c 405.059 421.023 404.219 421.867 403.723 422.402 c 403.227
 422.938 402.383 423.781 401.848 424.277 c 401.313 424.773 400.469 425.617
 399.973 426.152 c 399.477 426.688 398.633 427.531 398.098 428.027 c 397.563
 428.523 396.719 429.367 396.223 429.902 c 395.727 430.438 394.883 431.281
 394.348 431.777 c 393.813 432.273 392.969 433.117 392.473 433.652 c 391.977
 434.188 391.133 435.031 390.598 435.527 c 390.063 436.023 389.219 436.867
 388.723 437.402 c 388.227 437.938 387.383 438.781 386.848 439.277 c 386.313
 439.773 385.469 440.617 384.973 441.152 c 384.477 441.688 383.633 442.531
 383.098 443.027 c 382.563 443.523 381.719 444.367 381.223 444.902 c 380.727
 445.438 379.883 446.281 379.348 446.777 c 378.813 447.273 377.941 448.199
 377.406 448.84 c 376.875 449.477 376.133 450 375.758 450 c 375.383 450 
358.203 433.129 337.586 412.512 c 306.945 381.867 300.012 375.285 299.633
 376.473 c 299.379 377.27 298.531 378.125 297.75 378.375 c 296.969 378.625
 296.125 379.469 295.875 380.25 c 295.625 381.031 294.781 381.875 294 382.125
 c 293.219 382.375 292.375 383.219 292.125 384 c 291.875 384.781 291.031
 385.625 290.25 385.875 c 289.469 386.125 288.625 386.969 288.375 387.75
 c 288.125 388.531 287.281 389.375 286.5 389.625 c 285.719 389.875 284.875
 390.719 284.625 391.5 c 284.375 392.281 283.531 393.125 282.75 393.375 
c 281.969 393.625 281.125 394.469 280.875 395.25 c 280.625 396.031 279.781
 396.875 279 397.125 c 278.219 397.375 277.375 398.219 277.125 399 c 276.875
 399.781 276.031 400.625 275.25 400.875 c 274.469 401.125 273.625 401.969
 273.375 402.75 c 273.125 403.531 272.281 404.375 271.5 404.625 c 270.719
 404.875 269.875 405.719 269.625 406.5 c 269.375 407.281 268.531 408.125
 267.75 408.375 c 266.969 408.625 266.125 409.469 265.875 410.25 c 265.625
 411.031 264.781 411.875 264 412.125 c 263.219 412.375 262.375 413.219 262.125
 414 c 261.875 414.781 261.031 415.625 260.25 415.875 c 259.469 416.125 
258.625 416.969 258.375 417.75 c 258.125 418.531 257.281 419.375 256.5 419.625
 c 255.719 419.875 254.875 420.719 254.625 421.5 c 254.375 422.281 253.531
 423.125 252.75 423.375 c 251.969 423.625 251.125 424.469 250.875 425.25
 c 250.625 426.031 249.781 426.875 249 427.125 c 248.219 427.375 247.375
 428.219 247.125 429 c 246.875 429.781 246.031 430.625 245.25 430.875 c 
244.469 431.125 243.625 431.969 243.375 432.75 c 243.125 433.531 242.281
 434.375 241.5 434.625 c 240.719 434.875 239.875 435.719 239.625 436.5 c
 239.375 437.281 238.531 438.125 237.75 438.375 c 236.969 438.625 236.125
 439.469 235.875 440.25 c 235.625 441.031 234.781 441.875 234 442.125 c 
233.219 442.375 232.375 443.219 232.125 444 c 231.875 444.781 231.016 445.633
 230.211 445.887 c 229.406 446.141 228.75 446.641 228.75 446.996 c 228.75
 447.352 228.219 448.172 227.57 448.82 c 226.5 449.895 233.148 450 300.695
 450 c 347.699 450 375 450.266 375 450.719 c 375 451.117 374.477 451.875
 373.84 452.406 c 373.199 452.941 372.273 453.809 371.777 454.34 c 370.629
 455.566 369.316 456.879 368.09 458.027 c 367.559 458.523 366.719 459.367
 366.223 459.902 c 365.727 460.438 364.883 461.281 364.348 461.777 c 363.813
 462.273 362.969 463.117 362.473 463.652 c 361.977 464.188 361.133 465.031
 360.598 465.527 c 360.063 466.023 359.219 466.867 358.723 467.402 c 358.227
 467.938 357.383 468.781 356.848 469.277 c 356.313 469.773 355.469 470.617
 354.973 471.152 c 354.477 471.688 353.633 472.531 353.098 473.027 c 352.563
 473.523 351.719 474.367 351.223 474.902 c 350.727 475.438 349.883 476.281
 349.348 476.777 c 348.813 477.273 347.969 478.117 347.473 478.652 c 346.977
 479.188 346.133 480.031 345.598 480.527 c 345.063 481.023 344.219 481.867
 343.723 482.402 c 343.227 482.938 342.383 483.781 341.848 484.277 c 341.313
 484.773 340.469 485.617 339.973 486.152 c 339.477 486.688 338.633 487.531
 338.098 488.027 c 337.563 488.523 336.719 489.367 336.223 489.902 c 335.727
 490.438 334.883 491.281 334.348 491.777 c 333.813 492.273 332.969 493.117
 332.473 493.652 c 331.977 494.188 331.133 495.031 330.598 495.527 c 330.063
 496.023 329.219 496.867 328.723 497.402 c 328.227 497.938 327.383 498.781
 326.848 499.277 c 326.313 499.773 325.469 500.617 324.973 501.152 c 324.477
 501.688 323.633 502.531 323.098 503.027 c 322.563 503.523 321.719 504.367
 321.223 504.902 c 320.727 505.438 319.883 506.281 319.348 506.777 c 318.813
 507.273 317.969 508.117 317.473 508.652 c 316.977 509.188 316.133 510.031
 315.598 510.527 c 315.063 511.023 314.219 511.867 313.723 512.402 c 313.227
 512.938 312.383 513.781 311.848 514.277 c 311.313 514.773 310.469 515.617
 309.973 516.152 c 309.477 516.688 308.633 517.531 308.098 518.027 c 307.563
 518.523 306.719 519.367 306.223 519.902 c 305.727 520.438 304.883 521.281
 304.348 521.777 c 303.813 522.273 302.941 523.199 302.406 523.84 c 301.875
 524.477 301.133 525 300.758 525 c 299.863 525 75 300.137 75 299.242 c 75
 298.867 75.523 298.125 76.16 297.594 c 76.801 297.059 77.727 296.188 78.223
 295.652 c 78.719 295.117 79.563 294.273 80.098 293.777 c 80.633 293.281
 81.477 292.438 81.973 291.902 c 82.469 291.367 83.313 290.523 83.848 290.027
 c 84.383 289.531 85.227 288.688 85.723 288.152 c 86.219 287.617 87.063 
286.773 87.598 286.277 c 88.133 285.781 88.977 284.938 89.473 284.402 c 
89.969 283.867 90.813 283.023 91.348 282.527 c 91.883 282.031 92.727 281.188
 93.223 280.652 c 93.719 280.117 94.563 279.273 95.098 278.777 c 95.633 
278.281 96.477 277.438 96.973 276.902 c 97.469 276.367 98.313 275.523 98.848
 275.027 c 99.383 274.531 100.227 273.688 100.723 273.152 c 101.219 272.617
 102.063 271.773 102.598 271.277 c 103.133 270.781 103.977 269.941 104.473
 269.41 c 105.621 268.184 106.934 266.871 108.16 265.723 c 108.691 265.227
 109.531 264.383 110.027 263.848 c 110.523 263.313 111.367 262.469 111.902
 261.973 c 112.438 261.477 113.281 260.633 113.777 260.098 c 114.273 259.563
 115.117 258.719 115.652 258.223 c 116.188 257.727 117.031 256.883 117.527
 256.348 c 118.023 255.813 118.867 254.969 119.402 254.473 c 119.938 253.977
 120.781 253.133 121.277 252.598 c 121.773 252.063 122.617 251.219 123.152
 250.723 c 123.688 250.227 124.531 249.383 125.027 248.848 c 125.523 248.313
 126.367 247.469 126.902 246.973 c 127.438 246.477 128.281 245.633 128.777
 245.098 c 129.273 244.563 130.117 243.719 130.652 243.223 c 131.188 242.727
 132.031 241.883 132.527 241.348 c 133.023 240.813 133.867 239.969 134.402
 239.473 c 134.938 238.977 135.781 238.133 136.277 237.598 c 136.773 237.063
 137.617 236.219 138.152 235.723 c 138.688 235.227 139.531 234.383 140.027
 233.848 c 140.523 233.313 141.367 232.469 141.902 231.973 c 142.438 231.477
 143.281 230.633 143.777 230.098 c 144.273 229.563 145.117 228.719 145.652
 228.223 c 146.188 227.727 147.059 226.801 147.594 226.16 c 148.125 225.523
 148.883 225 149.281 225 c 149.734 225 150 252.301 150 299.305 c 150 366.852
 150.105 373.5 151.18 372.43 c 151.828 371.781 152.648 371.25 153.004 371.25
 c 153.359 371.25 153.859 370.594 154.113 369.789 c 154.367 368.984 155.219
 368.125 156 367.875 c 156.781 367.625 157.625 366.781 157.875 366 c 158.125
 365.219 158.969 364.375 159.75 364.125 c 160.531 363.875 161.375 363.031
 161.625 362.25 c 161.875 361.469 162.719 360.625 163.5 360.375 c 164.281
 360.125 165.125 359.281 165.375 358.5 c 165.625 357.719 166.469 356.875
 167.25 356.625 c 168.031 356.375 168.875 355.531 169.125 354.75 c 169.375
 353.969 170.219 353.125 171 352.875 c 171.781 352.625 172.625 351.781 172.875
 351 c 173.125 350.219 173.969 349.375 174.75 349.125 c 175.531 348.875 
176.375 348.031 176.625 347.25 c 176.875 346.469 177.719 345.625 178.5 345.375
 c 179.281 345.125 180.125 344.281 180.375 343.5 c 180.625 342.719 181.469
 341.875 182.25 341.625 c 183.031 341.375 183.875 340.531 184.125 339.75
 c 184.375 338.969 185.219 338.125 186 337.875 c 186.781 337.625 187.625
 336.781 187.875 336 c 188.125 335.219 188.969 334.375 189.75 334.125 c 
190.531 333.875 191.375 333.031 191.625 332.25 c 191.875 331.469 192.719
 330.625 193.5 330.375 c 194.281 330.125 195.125 329.281 195.375 328.5 c
 195.625 327.719 196.469 326.875 197.25 326.625 c 198.031 326.375 198.875
 325.531 199.125 324.75 c 199.375 323.969 200.219 323.125 201 322.875 c 
201.781 322.625 202.625 321.781 202.875 321 c 203.125 320.219 203.969 319.375
 204.75 319.125 c 205.531 318.875 206.375 318.031 206.625 317.25 c 206.875
 316.469 207.719 315.625 208.5 315.375 c 209.281 315.125 210.125 314.281
 210.375 313.5 c 210.625 312.719 211.469 311.875 212.25 311.625 c 213.031
 311.375 213.875 310.531 214.125 309.75 c 214.375 308.969 215.219 308.125
 216 307.875 c 216.781 307.625 217.625 306.781 217.875 306 c 218.125 305.219
 218.969 304.375 219.75 304.125 c 220.531 303.875 221.375 303.031 221.625
 302.25 c 221.875 301.469 222.73 300.621 223.527 300.367 c 224.715 299.988
 218.133 293.055 187.488 262.414 c 166.871 241.797 150 224.617 150 224.242
 c 150 223.867 150.523 223.125 151.16 222.594 c 151.801 222.059 152.727 
221.188 153.223 220.652 c 153.719 220.117 154.563 219.273 155.098 218.777
 c 155.633 218.281 156.477 217.438 156.973 216.902 c 157.469 216.367 158.313
 215.523 158.848 215.027 c 159.383 214.531 160.227 213.688 160.723 213.152
 c 161.219 212.617 162.063 211.773 162.598 211.277 c 163.133 210.781 163.977
 209.938 164.473 209.402 c 164.969 208.867 165.813 208.023 166.348 207.527
 c 166.883 207.031 167.727 206.188 168.223 205.652 c 168.719 205.117 169.563
 204.273 170.098 203.777 c 170.633 203.281 171.477 202.438 171.973 201.902
 c 172.469 201.367 173.313 200.523 173.848 200.027 c 174.383 199.531 175.227
 198.688 175.723 198.152 c 176.219 197.617 177.063 196.773 177.598 196.277
 c 178.133 195.781 178.977 194.938 179.473 194.402 c 179.969 193.867 180.813
 193.023 181.348 192.527 c 181.883 192.031 182.727 191.188 183.223 190.652
 c 183.719 190.117 184.563 189.273 185.098 188.777 c 185.633 188.281 186.477
 187.438 186.973 186.902 c 187.469 186.367 188.313 185.523 188.848 185.027
 c 189.383 184.531 190.227 183.688 190.723 183.152 c 191.219 182.617 192.063
 181.773 192.598 181.277 c 193.133 180.781 193.977 179.938 194.473 179.402
 c 194.969 178.867 195.813 178.023 196.348 177.527 c 196.883 177.031 197.727
 176.188 198.223 175.652 c 198.719 175.117 199.563 174.273 200.098 173.777
 c 200.633 173.281 201.477 172.438 201.973 171.902 c 202.469 171.367 203.313
 170.523 203.848 170.027 c 204.383 169.531 205.227 168.688 205.723 168.152
 c 206.219 167.617 207.063 166.773 207.598 166.277 c 208.133 165.781 208.977
 164.938 209.473 164.402 c 209.969 163.867 210.813 163.023 211.348 162.527
 c 211.883 162.031 212.727 161.188 213.223 160.652 c 213.719 160.117 214.563
 159.273 215.098 158.777 c 215.633 158.281 216.477 157.438 216.973 156.902
 c 217.469 156.367 218.313 155.523 218.848 155.027 c 219.383 154.531 220.227
 153.688 220.723 153.152 c 221.219 152.617 222.063 151.773 222.598 151.277
 c 223.133 150.781 223.977 149.938 224.473 149.402 c 224.969 148.867 225.813
 148.023 226.348 147.527 c 226.883 147.031 227.727 146.188 228.223 145.652
 c 228.719 145.117 229.563 144.273 230.098 143.777 c 230.633 143.281 231.477
 142.438 231.973 141.902 c 232.469 141.367 233.313 140.523 233.848 140.027
 c 234.383 139.531 235.227 138.688 235.723 138.152 c 236.219 137.617 237.063
 136.773 237.598 136.277 c 238.133 135.781 238.977 134.938 239.473 134.402
 c 239.969 133.867 240.813 133.023 241.348 132.527 c 241.883 132.031 242.727
 131.188 243.223 130.652 c 243.719 130.117 244.563 129.273 245.098 128.777
 c 245.633 128.281 246.477 127.438 246.973 126.902 c 247.469 126.367 248.313
 125.523 248.848 125.027 c 249.383 124.531 250.227 123.688 250.723 123.152
 c 251.219 122.617 252.063 121.773 252.598 121.277 c 253.133 120.781 253.977
 119.938 254.473 119.402 c 254.969 118.867 255.813 118.023 256.348 117.527
 c 256.883 117.031 257.727 116.188 258.223 115.652 c 258.719 115.117 259.563
 114.273 260.098 113.777 c 260.633 113.281 261.477 112.438 261.973 111.902
 c 262.469 111.367 263.313 110.523 263.848 110.027 c 264.383 109.531 265.227
 108.688 265.723 108.152 c 266.219 107.617 267.063 106.773 267.598 106.277
 c 268.133 105.781 268.977 104.938 269.473 104.402 c 269.969 103.867 270.813
 103.023 271.348 102.527 c 271.883 102.031 272.727 101.188 273.223 100.652
 c 273.719 100.117 274.563 99.273 275.098 98.777 c 275.633 98.281 276.477
 97.438 276.973 96.902 c 277.469 96.367 278.313 95.523 278.848 95.027 c 
279.383 94.531 280.227 93.688 280.723 93.152 c 281.219 92.617 282.063 91.773
 282.598 91.277 c 283.133 90.781 283.977 89.938 284.473 89.402 c 284.969
 88.867 285.813 88.023 286.348 87.527 c 286.883 87.031 287.727 86.188 288.223
 85.652 c 288.719 85.117 289.563 84.273 290.098 83.777 c 290.633 83.281 
291.477 82.438 291.973 81.902 c 292.469 81.367 293.313 80.523 293.848 80.027
 c 294.383 79.531 295.227 78.688 295.723 78.152 c 296.219 77.617 297.063
 76.773 297.598 76.277 c 298.133 75.781 298.977 74.965 299.473 74.465 c 
299.969 73.965 300.477 73.543 300.602 73.527 c 300.723 73.512 351.617 124.293
 413.695 186.371 c h
228 150.336 m 228 150.52 244.313 166.988 264.25 186.93 c 290.156 212.836
 300.742 222.961 301.34 222.406 c 301.801 221.977 302.617 221.219 303.152
 220.723 c 303.688 220.227 304.531 219.383 305.027 218.848 c 305.523 218.313
 306.367 217.469 306.902 216.973 c 307.438 216.477 308.281 215.633 308.777
 215.098 c 309.273 214.563 310.117 213.719 310.652 213.223 c 311.188 212.727
 312.031 211.883 312.527 211.348 c 313.023 210.813 313.867 209.969 314.402
 209.473 c 314.938 208.977 315.781 208.133 316.277 207.598 c 316.773 207.063
 317.617 206.219 318.152 205.723 c 318.688 205.227 319.531 204.383 320.027
 203.848 c 320.523 203.313 321.367 202.469 321.902 201.973 c 322.438 201.477
 323.281 200.633 323.777 200.098 c 324.273 199.563 325.117 198.719 325.652
 198.223 c 326.188 197.727 327.031 196.883 327.527 196.348 c 328.023 195.813
 328.867 194.969 329.402 194.473 c 329.938 193.977 330.781 193.133 331.277
 192.598 c 331.773 192.063 332.617 191.219 333.152 190.723 c 333.688 190.227
 334.531 189.383 335.027 188.848 c 335.523 188.313 336.367 187.469 336.902
 186.973 c 337.438 186.477 338.281 185.633 338.777 185.098 c 339.273 184.563
 340.117 183.719 340.652 183.223 c 341.188 182.727 342.031 181.883 342.527
 181.348 c 343.023 180.813 343.867 179.969 344.402 179.473 c 344.938 178.977
 345.781 178.133 346.277 177.598 c 346.773 177.063 347.617 176.219 348.152
 175.723 c 348.688 175.227 349.531 174.383 350.027 173.848 c 350.523 173.313
 351.367 172.469 351.902 171.973 c 352.438 171.477 353.281 170.633 353.777
 170.098 c 354.273 169.563 355.117 168.719 355.652 168.223 c 356.188 167.727
 357.031 166.883 357.527 166.348 c 358.023 165.813 358.867 164.969 359.402
 164.473 c 359.938 163.977 360.781 163.133 361.277 162.598 c 361.773 162.063
 362.617 161.219 363.152 160.723 c 363.688 160.227 364.531 159.383 365.027
 158.848 c 365.523 158.313 366.367 157.469 366.902 156.973 c 367.438 156.477
 368.281 155.633 368.777 155.098 c 369.273 154.563 370.117 153.719 370.652
 153.223 c 374.348 149.801 378.676 150 300.781 150 c 260.75 150 228 150.152
 228 150.336 c h
299.633 226.473 m 299.379 227.27 298.531 228.125 297.75 228.375 c 296.969
 228.625 296.125 229.469 295.875 230.25 c 295.625 231.031 294.781 231.875
 294 232.125 c 293.219 232.375 292.375 233.219 292.125 234 c 291.875 234.781
 291.031 235.625 290.25 235.875 c 289.469 236.125 288.625 236.969 288.375
 237.75 c 288.125 238.531 287.281 239.375 286.5 239.625 c 285.719 239.875
 284.875 240.719 284.625 241.5 c 284.375 242.281 283.531 243.125 282.75 
243.375 c 281.969 243.625 281.125 244.469 280.875 245.25 c 280.625 246.031
 279.781 246.875 279 247.125 c 278.219 247.375 277.375 248.219 277.125 249
 c 276.875 249.781 276.031 250.625 275.25 250.875 c 274.469 251.125 273.625
 251.969 273.375 252.75 c 273.125 253.531 272.281 254.375 271.5 254.625 
c 270.719 254.875 269.875 255.719 269.625 256.5 c 269.375 257.281 268.531
 258.125 267.75 258.375 c 266.969 258.625 266.125 259.469 265.875 260.25
 c 265.625 261.031 264.781 261.875 264 262.125 c 263.219 262.375 262.375
 263.219 262.125 264 c 261.875 264.781 261.031 265.625 260.25 265.875 c 
259.469 266.125 258.625 266.969 258.375 267.75 c 258.125 268.531 257.281
 269.375 256.5 269.625 c 255.719 269.875 254.875 270.719 254.625 271.5 c
 254.375 272.281 253.531 273.125 252.75 273.375 c 251.969 273.625 251.125
 274.469 250.875 275.25 c 250.625 276.031 249.781 276.875 249 277.125 c 
248.219 277.375 247.375 278.219 247.125 279 c 246.875 279.781 246.031 280.625
 245.25 280.875 c 244.469 281.125 243.625 281.969 243.375 282.75 c 243.125
 283.531 242.281 284.375 241.5 284.625 c 240.719 284.875 239.875 285.719
 239.625 286.5 c 239.375 287.281 238.531 288.125 237.75 288.375 c 236.969
 288.625 236.125 289.469 235.875 290.25 c 235.625 291.031 234.781 291.875
 234 292.125 c 233.219 292.375 232.375 293.219 232.125 294 c 231.875 294.781
 231.016 295.633 230.211 295.887 c 229.406 296.141 228.75 296.641 228.75
 296.996 c 228.75 297.352 228.324 298.09 227.805 298.633 c 227.031 299.445
 233.625 306.387 263.805 336.527 c 284.125 356.824 300.75 373.129 300.75
 372.766 c 300.75 372.398 301.406 371.891 302.211 371.637 c 303.016 371.383
 303.875 370.531 304.125 369.75 c 304.375 368.969 305.219 368.125 306 367.875
 c 306.781 367.625 307.625 366.781 307.875 366 c 308.125 365.219 308.969
 364.375 309.75 364.125 c 310.531 363.875 311.375 363.031 311.625 362.25
 c 311.875 361.469 312.719 360.625 313.5 360.375 c 314.281 360.125 315.125
 359.281 315.375 358.5 c 315.625 357.719 316.469 356.875 317.25 356.625 
c 318.031 356.375 318.875 355.531 319.125 354.75 c 319.375 353.969 320.219
 353.125 321 352.875 c 321.781 352.625 322.625 351.781 322.875 351 c 323.125
 350.219 323.969 349.375 324.75 349.125 c 325.531 348.875 326.375 348.031
 326.625 347.25 c 326.875 346.469 327.719 345.625 328.5 345.375 c 329.281
 345.125 330.125 344.281 330.375 343.5 c 330.625 342.719 331.469 341.875
 332.25 341.625 c 333.031 341.375 333.875 340.531 334.125 339.75 c 334.375
 338.969 335.219 338.125 336 337.875 c 336.781 337.625 337.625 336.781 337.875
 336 c 338.125 335.219 338.969 334.375 339.75 334.125 c 340.531 333.875 
341.375 333.031 341.625 332.25 c 341.875 331.469 342.719 330.625 343.5 330.375
 c 344.281 330.125 345.125 329.281 345.375 328.5 c 345.625 327.719 346.469
 326.875 347.25 326.625 c 348.031 326.375 348.875 325.531 349.125 324.75
 c 349.375 323.969 350.219 323.125 351 322.875 c 351.781 322.625 352.625
 321.781 352.875 321 c 353.125 320.219 353.969 319.375 354.75 319.125 c 
355.531 318.875 356.375 318.031 356.625 317.25 c 356.875 316.469 357.719
 315.625 358.5 315.375 c 359.281 315.125 360.125 314.281 360.375 313.5 c
 360.625 312.719 361.469 311.875 362.25 311.625 c 363.031 311.375 363.875
 310.531 364.125 309.75 c 364.375 308.969 365.219 308.125 366 307.875 c 
366.781 307.625 367.625 306.781 367.875 306 c 368.125 305.219 368.969 304.375
 369.75 304.125 c 370.531 303.875 371.367 303.063 371.602 302.32 c 371.84
 301.574 372.652 300.664 373.41 300.293 c 374.578 299.727 369.145 293.992
 337.438 262.324 c 306.914 231.832 300.012 225.285 299.633 226.473 c h
448.723 227.527 m 448.227 227.992 447.383 228.781 446.848 229.277 c 446.313
 229.773 445.469 230.617 444.973 231.152 c 444.477 231.688 443.633 232.531
 443.098 233.027 c 442.563 233.523 441.719 234.367 441.223 234.902 c 440.727
 235.438 439.883 236.281 439.348 236.777 c 438.813 237.273 437.969 238.117
 437.473 238.652 c 436.977 239.188 436.133 240.031 435.598 240.527 c 435.063
 241.023 434.219 241.867 433.723 242.402 c 433.227 242.938 432.383 243.781
 431.848 244.277 c 431.313 244.773 430.469 245.617 429.973 246.152 c 429.477
 246.688 428.633 247.531 428.098 248.027 c 427.563 248.523 426.719 249.367
 426.223 249.902 c 425.727 250.438 424.883 251.281 424.348 251.777 c 423.813
 252.273 422.969 253.117 422.473 253.652 c 421.977 254.188 421.133 255.031
 420.598 255.527 c 420.063 256.023 419.219 256.867 418.723 257.402 c 418.227
 257.938 417.383 258.781 416.848 259.277 c 416.313 259.773 415.469 260.617
 414.973 261.152 c 414.477 261.688 413.633 262.531 413.098 263.027 c 412.563
 263.523 411.719 264.367 411.223 264.902 c 410.727 265.438 409.883 266.281
 409.348 266.777 c 408.813 267.273 407.969 268.117 407.473 268.652 c 406.977
 269.188 406.133 270.031 405.598 270.527 c 405.063 271.023 404.219 271.867
 403.723 272.402 c 403.227 272.938 402.383 273.781 401.848 274.277 c 401.313
 274.773 400.469 275.617 399.973 276.152 c 399.477 276.688 398.633 277.531
 398.098 278.027 c 397.563 278.523 396.719 279.367 396.223 279.902 c 395.727
 280.438 394.883 281.281 394.348 281.777 c 393.813 282.273 392.969 283.117
 392.473 283.652 c 391.977 284.188 391.133 285.031 390.598 285.527 c 390.063
 286.023 389.219 286.867 388.723 287.402 c 388.227 287.938 387.383 288.781
 386.848 289.277 c 386.313 289.773 385.469 290.617 384.973 291.152 c 384.477
 291.688 383.633 292.531 383.098 293.027 c 382.563 293.523 381.719 294.367
 381.223 294.902 c 380.727 295.438 379.883 296.289 379.348 296.793 c 378.813
 297.297 378.027 298.113 377.605 298.613 c 377.039 299.277 386.484 309.164
 413.23 335.906 c 449.625 372.297 l 449.82 335.773 l 450.172 269.773 449.734
 226.578 448.723 227.527 c h
488.664 111.336 m 509.473 132.145 526.5 149.359 526.5 149.586 c 526.5 149.813
 509.289 150 488.25 150 c 450 150 l 450 111.75 l 450 90.711 450.188 73.5
 450.414 73.5 c 450.641 73.5 467.855 90.527 488.664 111.336 c h
150 112.5 m 150 150 l 112.5 150 l 89.027 150 75 149.73 75 149.281 c 75 
148.883 75.523 148.125 76.16 147.594 c 76.801 147.059 77.727 146.188 78.223
 145.652 c 78.719 145.117 79.563 144.273 80.098 143.777 c 80.633 143.281
 81.477 142.438 81.973 141.902 c 82.469 141.367 83.313 140.523 83.848 140.027
 c 84.383 139.531 85.227 138.688 85.723 138.152 c 86.219 137.617 87.063 
136.773 87.598 136.277 c 88.133 135.781 88.977 134.938 89.473 134.402 c 
89.969 133.867 90.813 133.023 91.348 132.527 c 91.883 132.031 92.727 131.188
 93.223 130.652 c 93.719 130.117 94.563 129.273 95.098 128.777 c 95.633 
128.281 96.477 127.438 96.973 126.902 c 97.469 126.367 98.309 125.523 98.84
 125.027 c 100.066 123.879 101.379 122.566 102.527 121.34 c 103.023 120.809
 103.867 119.969 104.402 119.473 c 104.938 118.977 105.781 118.133 106.277
 117.598 c 106.773 117.063 107.617 116.219 108.152 115.723 c 108.688 115.227
 109.531 114.383 110.027 113.848 c 110.523 113.313 111.367 112.469 111.902
 111.973 c 112.438 111.477 113.281 110.633 113.777 110.098 c 114.273 109.563
 115.117 108.719 115.652 108.223 c 116.188 107.727 117.031 106.883 117.527
 106.348 c 118.023 105.813 118.867 104.969 119.402 104.473 c 119.938 103.977
 120.781 103.133 121.277 102.598 c 121.773 102.063 122.617 101.219 123.152
 100.723 c 123.688 100.227 124.531 99.383 125.027 98.848 c 125.523 98.313
 126.367 97.469 126.902 96.973 c 127.438 96.477 128.281 95.633 128.777 95.098
 c 129.273 94.563 130.117 93.719 130.652 93.223 c 131.188 92.727 132.031
 91.883 132.527 91.348 c 133.023 90.813 133.867 89.969 134.402 89.473 c 
134.938 88.977 135.781 88.133 136.277 87.598 c 136.773 87.063 137.617 86.219
 138.152 85.723 c 138.688 85.227 139.531 84.383 140.027 83.848 c 140.523
 83.313 141.367 82.469 141.902 81.973 c 142.438 81.477 143.281 80.633 143.777
 80.098 c 144.273 79.563 145.117 78.719 145.652 78.223 c 146.188 77.727 
147.059 76.801 147.594 76.16 c 148.125 75.523 148.883 75 149.281 75 c 149.73
 75 150 89.027 150 112.5 c h
150 487.125 m 150 507.543 149.848 524.25 149.66 524.25 c 149.215 524.25
 75.75 450.785 75.75 450.34 c 75.75 450.152 92.457 450 112.875 450 c 150
 450 l h
525 450.719 m 525 451.117 524.477 451.875 523.84 452.406 c 523.199 452.941
 522.273 453.813 521.777 454.348 c 521.281 454.883 520.438 455.727 519.902
 456.223 c 519.367 456.719 518.523 457.563 518.027 458.098 c 517.531 458.633
 516.688 459.477 516.152 459.973 c 515.617 460.469 514.773 461.313 514.277
 461.848 c 513.781 462.383 512.938 463.227 512.402 463.723 c 511.867 464.219
 511.023 465.063 510.527 465.598 c 510.031 466.133 509.188 466.977 508.652
 467.473 c 508.117 467.969 507.273 468.813 506.777 469.348 c 506.281 469.883
 505.438 470.727 504.902 471.223 c 504.367 471.719 503.523 472.563 503.027
 473.098 c 502.531 473.633 501.688 474.477 501.152 474.973 c 500.617 475.469
 499.773 476.313 499.277 476.848 c 498.781 477.383 497.938 478.227 497.402
 478.723 c 496.867 479.219 496.023 480.063 495.527 480.598 c 495.031 481.133
 494.188 481.977 493.652 482.473 c 493.117 482.969 492.273 483.813 491.777
 484.348 c 491.281 484.883 490.438 485.727 489.902 486.223 c 489.367 486.719
 488.523 487.563 488.027 488.098 c 487.531 488.633 486.691 489.477 486.16
 489.973 c 484.934 491.121 483.621 492.434 482.473 493.66 c 481.977 494.191
 481.133 495.031 480.598 495.527 c 480.063 496.023 479.219 496.867 478.723
 497.402 c 478.227 497.938 477.383 498.781 476.848 499.277 c 476.313 499.773
 475.469 500.617 474.973 501.152 c 474.477 501.688 473.633 502.531 473.098
 503.027 c 472.563 503.523 471.719 504.367 471.223 504.902 c 470.727 505.438
 469.883 506.281 469.348 506.777 c 468.813 507.273 467.969 508.117 467.473
 508.652 c 466.977 509.188 466.133 510.031 465.598 510.527 c 465.063 511.023
 464.219 511.867 463.723 512.402 c 463.227 512.938 462.383 513.781 461.848
 514.277 c 461.313 514.773 460.469 515.617 459.973 516.152 c 459.477 516.688
 458.633 517.531 458.098 518.027 c 457.563 518.523 456.719 519.367 456.223
 519.902 c 455.727 520.438 454.883 521.281 454.348 521.777 c 453.813 522.273
 452.941 523.199 452.406 523.84 c 451.875 524.477 451.117 525 450.719 525
 c 450.27 525 450 510.973 450 487.5 c 450 450 l 487.5 450 l 510.973 450 
525 450.27 525 450.719 c h
525 450.719 m f
Q Q
showpage
%%Trailer
end restore
%%EOF
