%!PS-Adobe-3.0 EPSF-3.0
%%Creator: cairo 1.14.1 (http://cairographics.org)
%%CreationDate: Fri May 03 00:31:27 2019
%%Pages: 1
%%DocumentData: Clean7Bit
%%LanguageLevel: 2
%%BoundingBox: 0 -1 601 601
%%EndComments
%%BeginProlog
save
50 dict begin
/q { gsave } bind def
/Q { grestore } bind def
/cm { 6 array astore concat } bind def
/w { setlinewidth } bind def
/J { setlinecap } bind def
/j { setlinejoin } bind def
/M { setmiterlimit } bind def
/d { setdash } bind def
/m { moveto } bind def
/l { lineto } bind def
/c { curveto } bind def
/h { closepath } bind def
/re { exch dup neg 3 1 roll 5 3 roll moveto 0 rlineto
      0 exch rlineto 0 rlineto closepath } bind def
/S { stroke } bind def
/f { fill } bind def
/f* { eofill } bind def
/n { newpath } bind def
/W { clip } bind def
/W* { eoclip } bind def
/BT { } bind def
/ET { } bind def
/pdfmark where { pop globaldict /?pdfmark /exec load put }
    { globaldict begin /?pdfmark /pop load def /pdfmark
    /cleartomark load def end } ifelse
/BDC { mark 3 1 roll /BDC pdfmark } bind def
/EMC { mark /EMC pdfmark } bind def
/cairo_store_point { /cairo_point_y exch def /cairo_point_x exch def } def
/Tj { show currentpoint cairo_store_point } bind def
/TJ {
  {
    dup
    type /stringtype eq
    { show } { -0.001 mul 0 cairo_font_matrix dtransform rmoveto } ifelse
  } forall
  currentpoint cairo_store_point
} bind def
/cairo_selectfont { cairo_font_matrix aload pop pop pop 0 0 6 array astore
    cairo_font exch selectfont cairo_point_x cairo_point_y moveto } bind def
/Tf { pop /cairo_font exch def /cairo_font_matrix where
      { pop cairo_selectfont } if } bind def
/Td { matrix translate cairo_font_matrix matrix concatmatrix dup
      /cairo_font_matrix exch def dup 4 get exch 5 get cairo_store_point
      /cairo_font where { pop cairo_selectfont } if } bind def
/Tm { 2 copy 8 2 roll 6 array astore /cairo_font_matrix exch def
      cairo_store_point /cairo_font where { pop cairo_selectfont } if } bind def
/g { setgray } bind def
/rg { setrgbcolor } bind def
/d1 { setcachedevice } bind def
%%EndProlog
%%BeginSetup
%%EndSetup
%%Page: 1 1
%%BeginPageSetup
%%PageBoundingBox: 0 -1 601 601
%%EndPageSetup
q 0 -1 601 602 rectclip q
0.501961 0.509804 0.372549 rg
24.586 24.195 m 37.887 37.499 48.77 48.605 48.77 48.874 c 48.77 49.148 
37.801 54.847 24.395 61.546 c 0.02 73.726 l 0.02 262.179 l 0.02 440.203 
0.09 450.769 1.332 453.128 c 2.051 454.503 2.895 455.738 3.207 455.874 c
 3.516 456.015 3.77 456.578 3.77 457.128 c 3.77 458.331 6.16 463.023 6.957
 463.374 c 7.266 463.515 7.52 464.078 7.52 464.628 c 7.52 465.831 9.91 470.523
 10.707 470.874 c 11.016 471.015 11.27 471.578 11.27 472.128 c 11.27 473.331
 13.66 478.023 14.457 478.374 c 14.766 478.515 15.02 479.078 15.02 479.628
 c 15.02 480.831 17.41 485.523 18.207 485.874 c 18.516 486.015 18.77 486.578
 18.77 487.128 c 18.77 488.331 21.16 493.023 21.957 493.374 c 22.266 493.515
 22.52 494.078 22.52 494.628 c 22.52 495.831 24.91 500.523 25.707 500.874
 c 26.016 501.015 26.27 501.578 26.27 502.128 c 26.27 503.331 28.66 508.023
 29.457 508.374 c 29.766 508.515 30.02 509.078 30.02 509.628 c 30.02 510.831
 32.41 515.523 33.207 515.874 c 33.516 516.015 33.77 516.578 33.77 517.128
 c 33.77 518.355 36.113 522.914 37.145 523.687 c 37.641 524.062 37.633 524.441
 37.121 524.812 c 36.699 525.124 35.695 526.894 34.895 528.749 c 34.09 530.609
 33.246 532.296 33.02 532.499 c 32.789 532.706 31.945 534.394 31.145 536.249
 c 30.34 538.109 29.496 539.796 29.27 539.999 c 29.039 540.206 28.195 541.894
 27.395 543.749 c 26.59 545.609 25.746 547.296 25.52 547.499 c 25.289 547.706
 24.445 549.394 23.645 551.249 c 22.84 553.109 21.996 554.796 21.77 554.999
 c 21.539 555.206 20.695 556.894 19.895 558.749 c 19.09 560.609 18.246 562.296
 18.02 562.499 c 17.789 562.706 16.945 564.394 16.145 566.249 c 15.34 568.109
 14.496 569.796 14.27 569.999 c 14.039 570.206 13.195 571.894 12.395 573.749
 c 11.59 575.609 10.746 577.296 10.52 577.499 c 10.289 577.706 9.445 579.394
 8.645 581.249 c 7.84 583.109 6.996 584.796 6.77 584.999 c 6.539 585.206
 5.695 586.894 4.895 588.749 c 4.09 590.609 3.246 592.296 3.02 592.499 c
 2.07 593.355 -0.18 599.304 0.277 599.757 c 0.547 600.031 11.781 589.226
 25.242 575.753 c 38.703 562.277 50.008 551.249 50.367 551.249 c 50.727 
551.249 51.02 551.757 51.02 552.374 c 51.02 552.996 51.355 553.499 51.77
 553.499 c 52.18 553.499 52.52 553.98 52.52 554.566 c 52.52 555.816 54.891
 560.515 55.707 560.874 c 56.016 561.015 56.27 561.578 56.27 562.128 c 56.27
 563.331 58.66 568.023 59.457 568.374 c 59.766 568.515 60.02 569.078 60.02
 569.628 c 60.02 570.831 62.41 575.523 63.207 575.874 c 63.516 576.015 63.77
 576.578 63.77 577.128 c 63.77 578.331 66.16 583.023 66.957 583.374 c 67.266
 583.515 67.52 584.078 67.52 584.628 c 67.52 585.831 69.91 590.523 70.707
 590.874 c 71.016 591.015 71.27 591.578 71.27 592.128 c 71.27 593.273 73.457
 597.581 74.777 599.031 c 75.496 599.82 110.668 599.999 263.563 599.999 
c 440.938 599.999 451.625 599.929 454.305 598.687 c 455.867 597.968 457.313
 597.199 457.52 596.98 c 457.723 596.761 459.41 595.929 461.27 595.124 c
 463.125 594.324 464.813 593.484 465.02 593.261 c 465.223 593.039 475.18
 587.984 487.145 582.031 c 499.105 576.078 509.066 570.96 509.277 570.664
 c 509.484 570.363 510.582 569.89 511.715 569.605 c 512.844 569.32 513.77
 568.789 513.77 568.421 c 513.77 568.054 514.441 567.749 515.27 567.749 
c 516.094 567.749 516.77 567.441 516.77 567.062 c 516.77 566.683 517.781
 566.148 519.02 565.874 c 520.254 565.605 521.27 565.07 521.27 564.691 c
 521.27 564.312 521.914 563.999 522.707 563.999 c 523.496 563.999 524.258
 563.656 524.398 563.234 c 524.605 562.609 539.441 569.421 540.77 570.749
 c 540.973 570.956 550.93 576.015 562.895 581.992 c 574.855 587.968 584.813
 593.042 585.02 593.265 c 585.223 593.484 586.91 594.324 588.77 595.124 
c 590.625 595.929 592.313 596.761 592.52 596.98 c 592.723 597.199 594.172
 597.968 595.73 598.687 c 604.184 602.597 601.234 598.863 575.781 573.441
 c 551.547 549.234 l 554.414 547.992 l 555.988 547.308 557.613 546.749 558.023
 546.749 c 558.434 546.749 558.77 546.492 558.77 546.179 c 558.77 545.578
 564.242 542.999 565.523 542.999 c 565.934 542.999 566.27 542.742 566.27
 542.429 c 566.27 541.828 571.742 539.249 573.023 539.249 c 573.434 539.249
 573.77 538.992 573.77 538.679 c 573.77 538.078 579.242 535.499 580.523 
535.499 c 580.934 535.499 581.27 535.242 581.27 534.929 c 581.27 534.328
 586.742 531.749 588.023 531.749 c 588.434 531.749 588.77 531.492 588.77
 531.179 c 588.77 530.578 594.242 527.999 595.523 527.999 c 595.934 527.999
 596.27 527.746 596.27 527.429 c 596.27 527.113 597.027 526.523 597.957 
526.117 c 599.645 525.374 l 600.02 149.999 l 526.605 149.999 l 527.684 147.937
 l 528.273 146.804 528.762 145.453 528.762 144.937 c 528.766 144.421 529.027
 143.999 529.34 143.999 c 529.945 143.999 532.52 138.527 532.52 137.246 
c 532.52 136.835 532.777 136.499 533.09 136.499 c 533.695 136.499 536.27
 131.027 536.27 129.746 c 536.27 129.335 536.527 128.999 536.84 128.999 
c 537.445 128.999 540.02 123.527 540.02 122.246 c 540.02 121.835 540.277
 121.499 540.59 121.499 c 541.195 121.499 543.77 116.027 543.77 114.746 
c 543.77 114.335 544.027 113.999 544.34 113.999 c 544.945 113.999 547.52
 108.527 547.52 107.246 c 547.52 106.835 547.793 106.499 548.129 106.499
 c 548.465 106.499 549.203 105.32 549.77 103.874 c 550.336 102.433 550.984
 101.249 551.215 101.249 c 551.445 101.249 562.559 112.136 575.91 125.437
 c 600.184 149.624 l 599.785 146.331 l 599.563 144.519 599.086 142.831 598.723
 142.581 c 597.918 142.027 595.52 136.964 595.52 135.824 c 595.52 135.371
 595.262 134.999 594.945 134.999 c 594.344 134.999 591.77 129.527 591.77
 128.246 c 591.77 127.835 591.512 127.499 591.195 127.499 c 590.594 127.499
 588.02 122.027 588.02 120.746 c 588.02 120.335 587.762 119.999 587.445 
119.999 c 586.844 119.999 584.27 114.527 584.27 113.246 c 584.27 112.835
 584.012 112.499 583.695 112.499 c 583.094 112.499 580.52 107.027 580.52
 105.746 c 580.52 105.335 580.262 104.999 579.945 104.999 c 579.344 104.999
 576.77 99.527 576.77 98.246 c 576.77 97.835 576.512 97.499 576.195 97.499
 c 575.594 97.499 573.02 92.027 573.02 90.746 c 573.02 90.335 572.762 89.999
 572.445 89.999 c 571.844 89.999 569.27 84.527 569.27 83.246 c 569.27 82.835
 569.012 82.499 568.695 82.499 c 568.094 82.499 565.52 77.027 565.52 75.746
 c 565.52 75.335 565.199 74.999 564.813 74.999 c 564.426 74.999 564.59 74.074
 565.184 72.937 c 565.773 71.804 566.262 70.453 566.262 69.937 c 566.266
 69.421 566.527 68.999 566.84 68.999 c 567.445 68.999 570.02 63.527 570.02
 62.246 c 570.02 61.835 570.277 61.499 570.59 61.499 c 571.195 61.499 573.77
 56.027 573.77 54.746 c 573.77 54.335 574.027 53.999 574.34 53.999 c 574.945
 53.999 577.52 48.527 577.52 47.246 c 577.52 46.835 577.777 46.499 578.09
 46.499 c 578.695 46.499 581.27 41.027 581.27 39.746 c 581.27 39.335 581.527
 38.999 581.84 38.999 c 582.445 38.999 585.02 33.527 585.02 32.246 c 585.02
 31.835 585.277 31.499 585.59 31.499 c 586.195 31.499 588.77 26.027 588.77
 24.746 c 588.77 24.335 589.027 23.999 589.34 23.999 c 589.945 23.999 592.52
 18.527 592.52 17.246 c 592.52 16.835 592.777 16.499 593.09 16.499 c 593.695
 16.499 596.27 11.027 596.27 9.746 c 596.27 9.335 596.527 8.999 596.84 8.999
 c 597.156 8.999 598 7.648 598.715 5.996 c 600.031 2.956 600.43 -0.001 599.523
 -0.001 c 599.254 -0.001 588.402 10.632 575.414 23.624 c 562.422 36.621 
551.508 47.249 551.156 47.249 c 550.805 47.249 550.52 46.746 550.52 46.124
 c 550.52 45.507 550.262 44.999 549.945 44.999 c 549.344 44.999 546.77 39.527
 546.77 38.246 c 546.77 37.835 546.512 37.499 546.195 37.499 c 545.594 37.499
 543.02 32.027 543.02 30.746 c 543.02 30.335 542.762 29.999 542.445 29.999
 c 541.844 29.999 539.27 24.527 539.27 23.246 c 539.27 22.835 539.012 22.499
 538.695 22.499 c 538.094 22.499 535.52 17.027 535.52 15.746 c 535.52 15.335
 535.262 14.999 534.945 14.999 c 534.344 14.999 531.77 9.527 531.77 8.246
 c 531.77 7.835 531.512 7.499 531.195 7.499 c 530.594 7.499 528.02 2.027
 528.02 0.746 c 528.02 0.261 514.402 -0.001 489.207 -0.001 c 450.395 -0.001
 l 524.727 74.331 l 487.559 111.488 l 450.395 148.64 l 450.012 -0.001 l 
298.703 0.011 l 147.395 0.019 l 111.449 18.011 l 77.262 35.128 75.422 35.953
 73.789 34.882 c 72.844 34.265 71.582 33.757 70.98 33.757 c 70.383 33.757
 69.781 33.503 69.645 33.195 c 69.289 32.402 64.598 30.007 63.395 30.007
 c 62.844 30.007 62.281 29.753 62.145 29.445 c 61.789 28.652 57.098 26.257
 55.895 26.257 c 55.344 26.257 54.781 26.003 54.645 25.695 c 54.289 24.902
 49.598 22.507 48.395 22.507 c 47.844 22.507 47.281 22.253 47.145 21.945
 c 46.789 21.152 42.098 18.757 40.895 18.757 c 40.344 18.757 39.781 18.503
 39.645 18.195 c 39.289 17.402 34.598 15.007 33.395 15.007 c 32.844 15.007
 32.281 14.753 32.145 14.445 c 31.789 13.652 27.098 11.257 25.895 11.257
 c 25.344 11.257 24.781 11.003 24.645 10.695 c 24.289 9.902 19.598 7.507
 18.395 7.507 c 17.844 7.507 17.281 7.253 17.145 6.945 c 16.789 6.152 12.098
 3.757 10.895 3.757 c 10.344 3.757 9.781 3.503 9.645 3.195 c 9.16 2.113 
4.379 0.007 2.398 0.007 c 0.695 0.007 3.945 3.554 24.586 24.199 c h
149.637 72.632 m 149.422 72.847 148.844 72.624 148.355 72.14 c 147.867 
71.652 146.887 71.249 146.18 71.249 c 145.473 71.249 144.781 70.999 144.645
 70.687 c 144.289 69.894 139.598 67.499 138.395 67.499 c 137.844 67.499 
137.281 67.249 137.145 66.937 c 136.789 66.144 132.098 63.749 130.895 63.749
 c 130.344 63.749 129.781 63.499 129.645 63.187 c 129.289 62.394 124.598
 59.999 123.395 59.999 c 122.844 59.999 122.281 59.749 122.145 59.437 c 
121.789 58.644 117.098 56.249 115.895 56.249 c 115.344 56.249 114.781 55.999
 114.645 55.687 c 114.281 54.874 109.582 52.499 108.332 52.499 c 107.746
 52.499 107.27 52.238 107.27 51.917 c 107.27 51.593 106.254 50.949 105.02
 50.48 c 103.781 50.015 102.77 49.316 102.77 48.929 c 102.77 48.546 113.316
 37.683 126.207 24.792 c 149.645 1.355 l 149.84 36.796 l 149.945 56.289 
149.855 72.414 149.637 72.632 c h
112.895 149.82 m 92.477 149.929 59.031 149.929 38.574 149.82 c 1.375 149.624
 l 38.387 112.46 l 75.395 75.296 l 112.707 112.46 l 150.023 149.624 l h
73.52 450.726 m 73.52 451.531 71.117 456.914 70.496 457.499 c 70.281 457.706
 69.445 459.394 68.645 461.249 c 67.84 463.109 66.996 464.796 66.77 464.999
 c 66.539 465.206 65.695 466.894 64.895 468.749 c 64.09 470.609 63.246 472.296
 63.02 472.499 c 62.789 472.706 61.945 474.394 61.145 476.249 c 60.34 478.109
 59.496 479.796 59.27 479.999 c 59.039 480.206 58.195 481.894 57.395 483.749
 c 56.59 485.609 55.73 487.296 55.484 487.499 c 55.234 487.706 54.383 489.48
 53.586 491.437 c 52.793 493.394 51.891 494.996 51.582 494.999 c 51.27 494.999
 51.02 495.507 51.02 496.124 c 51.02 496.746 50.695 497.249 50.301 497.249
 c 49.609 497.249 3.02 451.023 3.02 450.335 c 3.02 450.152 18.879 449.999
 38.27 449.999 c 60.441 449.999 73.52 450.269 73.52 450.726 c h
597.32 451.581 m 596.535 452.453 580.098 468.956 560.789 488.257 c 525.684
 523.347 l 489.352 487.011 l 469.367 467.027 453.02 450.523 453.02 450.339
 c 453.02 450.152 485.809 449.999 525.883 449.999 c 598.75 449.999 l h
149.836 560.777 m 149.645 597.3 l 113.156 560.816 l 76.664 524.331 l 113.156
 487.843 l 149.645 451.351 l 149.836 487.8 l 149.945 507.851 149.945 540.687
 149.836 560.777 c h
451.645 525.562 m 451.996 526.359 456.688 528.749 457.891 528.749 c 458.441
 528.749 459.004 529.003 459.145 529.312 c 459.496 530.109 464.188 532.499
 465.391 532.499 c 465.941 532.499 466.504 532.753 466.645 533.062 c 466.996
 533.859 471.688 536.249 472.891 536.249 c 473.441 536.249 474.004 536.503
 474.145 536.812 c 474.496 537.609 479.188 539.999 480.391 539.999 c 480.941
 539.999 481.504 540.253 481.645 540.562 c 482.004 541.378 486.703 543.749
 487.953 543.749 c 488.539 543.749 489.027 544.003 489.039 544.312 c 489.047
 544.624 491.238 545.89 493.902 547.124 c 496.566 548.363 498.754 549.581
 498.758 549.831 c 498.766 550.234 455.621 593.667 451.598 597.304 c 450.02
 598.734 l 450.02 561.867 l 450.02 529.339 450.32 522.589 451.645 525.562
 c h
451.645 525.562 m f
1.52 0.425 m 1.52 0.66 12.148 11.472 25.145 24.453 c 38.137 37.437 48.758
 48.468 48.75 48.968 c 48.73 49.855 43.832 52.499 42.211 52.499 c 41.762
 52.499 41.281 52.753 41.145 53.062 c 40.789 53.859 36.098 56.249 34.895
 56.249 c 34.344 56.249 33.781 56.503 33.645 56.812 c 33.289 57.609 28.598
 59.999 27.395 59.999 c 26.844 59.999 26.281 60.253 26.145 60.562 c 25.789
 61.359 21.098 63.749 19.895 63.749 c 19.344 63.749 18.781 64.003 18.645
 64.312 c 18.289 65.109 13.598 67.499 12.395 67.499 c 11.844 67.499 11.281
 67.753 11.145 68.062 c 10.781 68.878 6.082 71.249 4.832 71.249 c 4.246 
71.249 3.77 71.554 3.77 71.921 c 3.77 72.289 2.926 72.8 1.895 73.058 c 0.02
 73.531 l 0.02 449.722 l 37.34 524.324 l 18.586 561.82 l 8.27 582.441 0.008
 599.488 0.223 599.706 c 0.438 599.921 11.598 589.105 25.02 575.675 c 38.445
 562.242 49.738 551.249 50.113 551.249 c 50.488 551.249 56.281 562.218 62.984
 575.624 c 75.172 599.999 l 451.184 599.999 l 461.289 594.789 l 492.766 
578.554 525.949 562.316 526.387 562.929 c 526.664 563.32 539.379 569.867
 554.645 577.48 c 569.906 585.089 582.563 591.511 582.77 591.742 c 582.973
 591.976 584.66 592.824 586.52 593.624 c 588.375 594.429 590.063 595.265
 590.27 595.488 c 590.813 596.074 598.816 599.999 599.465 599.999 c 601.563
 599.999 597.215 595.187 575.668 573.624 c 551.32 549.261 l 553.918 548.242
 l 555.348 547.679 556.52 546.972 556.52 546.671 c 556.52 546.367 557.531
 545.898 558.77 545.624 c 560.004 545.355 561.02 544.82 561.02 544.441 c
 561.02 544.062 561.691 543.749 562.52 543.749 c 563.344 543.749 564.02 
543.441 564.02 543.062 c 564.02 542.683 565.031 542.148 566.27 541.874 c
 567.504 541.605 568.52 541.07 568.52 540.691 c 568.52 540.312 569.191 539.999
 570.02 539.999 c 570.844 539.999 571.52 539.691 571.52 539.312 c 571.52
 538.933 572.531 538.398 573.77 538.124 c 575.004 537.855 576.02 537.32 
576.02 536.941 c 576.02 536.562 576.691 536.249 577.52 536.249 c 578.344
 536.249 579.02 535.941 579.02 535.562 c 579.02 535.183 580.031 534.648 
581.27 534.374 c 582.504 534.105 583.52 533.57 583.52 533.191 c 583.52 532.812
 584.191 532.499 585.02 532.499 c 585.844 532.499 586.52 532.191 586.52 
531.812 c 586.52 531.433 587.531 530.898 588.77 530.624 c 590.004 530.355
 591.02 529.82 591.02 529.441 c 591.02 529.062 591.691 528.749 592.52 528.749
 c 593.344 528.749 594.02 528.449 594.02 528.081 c 594.02 527.714 594.902
 527.191 595.984 526.921 c 597.066 526.648 598.414 525.96 598.984 525.394
 c 599.855 524.519 600.02 495.273 600.02 337.179 c 600.02 149.999 l 526.418
 149.999 l 526.941 148.312 l 527.23 147.386 527.758 146.515 528.117 146.374
 c 528.477 146.238 528.77 145.648 528.77 145.062 c 528.77 144.48 529.066
 143.999 529.434 143.999 c 529.801 143.999 530.324 142.82 530.594 141.374
 c 530.863 139.933 531.41 138.749 531.801 138.749 c 532.195 138.749 532.52
 138.246 532.52 137.624 c 532.52 137.007 532.816 136.499 533.184 136.499
 c 533.551 136.499 534.074 135.32 534.344 133.874 c 534.613 132.433 535.16
 131.249 535.551 131.249 c 535.945 131.249 536.27 130.746 536.27 130.124
 c 536.27 129.507 536.566 128.999 536.934 128.999 c 537.301 128.999 537.824
 127.82 538.094 126.374 c 538.363 124.933 538.91 123.749 539.301 123.749
 c 539.695 123.749 540.02 123.246 540.02 122.624 c 540.02 122.007 540.316
 121.499 540.684 121.499 c 541.051 121.499 541.574 120.32 541.844 118.874
 c 542.113 117.433 542.66 116.249 543.051 116.249 c 543.445 116.249 543.77
 115.746 543.77 115.124 c 543.77 114.507 544.066 113.999 544.434 113.999
 c 544.801 113.999 545.324 112.82 545.594 111.374 c 545.863 109.933 546.41
 108.749 546.801 108.749 c 547.195 108.749 547.52 108.246 547.52 107.624
 c 547.52 107.007 547.816 106.499 548.184 106.499 c 548.551 106.499 549.074
 105.32 549.344 103.874 c 549.633 102.343 550.277 101.249 550.898 101.249
 c 551.484 101.249 562.586 111.882 575.566 124.874 c 588.547 137.871 599.359
 148.499 599.594 148.499 c 599.828 148.499 600.02 147.656 600.02 146.624
 c 600.02 145.593 599.707 144.749 599.328 144.749 c 598.949 144.749 598.414
 143.738 598.145 142.499 c 597.871 141.265 597.34 140.249 596.957 140.249
 c 596.578 140.249 596.27 139.578 596.27 138.749 c 596.27 137.925 595.957
 137.249 595.578 137.249 c 595.199 137.249 594.664 136.238 594.395 134.999
 c 594.121 133.765 593.59 132.749 593.207 132.749 c 592.828 132.749 592.52
 132.078 592.52 131.249 c 592.52 130.425 592.207 129.749 591.828 129.749
 c 591.449 129.749 590.914 128.738 590.645 127.499 c 590.371 126.265 589.84
 125.249 589.457 125.249 c 589.078 125.249 588.77 124.578 588.77 123.749
 c 588.77 122.925 588.457 122.249 588.078 122.249 c 587.699 122.249 587.164
 121.238 586.895 119.999 c 586.621 118.765 586.09 117.749 585.707 117.749
 c 585.328 117.749 585.02 117.078 585.02 116.249 c 585.02 115.425 584.707
 114.749 584.328 114.749 c 583.949 114.749 583.414 113.738 583.145 112.499
 c 582.871 111.265 582.34 110.249 581.957 110.249 c 581.578 110.249 581.27
 109.578 581.27 108.749 c 581.27 107.925 580.957 107.249 580.578 107.249
 c 580.199 107.249 579.664 106.238 579.395 104.999 c 579.121 103.765 578.59
 102.749 578.207 102.749 c 577.828 102.749 577.52 102.078 577.52 101.249
 c 577.52 100.425 577.207 99.749 576.828 99.749 c 576.449 99.749 575.914
 98.738 575.645 97.499 c 575.371 96.265 574.84 95.249 574.457 95.249 c 574.078
 95.249 573.77 94.578 573.77 93.749 c 573.77 92.925 573.457 92.249 573.078
 92.249 c 572.699 92.249 572.164 91.238 571.895 89.999 c 571.621 88.765 
571.09 87.749 570.707 87.749 c 570.328 87.749 570.02 87.078 570.02 86.249
 c 570.02 85.425 569.707 84.749 569.328 84.749 c 568.949 84.749 568.414 
83.738 568.145 82.499 c 567.871 81.265 567.34 80.249 566.957 80.249 c 566.578
 80.249 566.27 79.605 566.27 78.812 c 566.27 78.023 565.875 77.246 565.395
 77.085 c 564.254 76.706 564.254 71.796 565.395 71.417 c 565.875 71.257 
566.27 70.648 566.27 70.062 c 566.27 69.48 566.566 68.999 566.934 68.999
 c 567.301 68.999 567.824 67.82 568.094 66.374 c 568.363 64.933 568.91 63.749
 569.301 63.749 c 569.695 63.749 570.02 63.246 570.02 62.624 c 570.02 62.007
 570.316 61.499 570.684 61.499 c 571.051 61.499 571.574 60.32 571.844 58.874
 c 572.113 57.433 572.66 56.249 573.051 56.249 c 573.445 56.249 573.77 55.746
 573.77 55.124 c 573.77 54.507 574.066 53.999 574.434 53.999 c 574.801 53.999
 575.324 52.82 575.594 51.374 c 575.863 49.933 576.41 48.749 576.801 48.749
 c 577.195 48.749 577.52 48.246 577.52 47.624 c 577.52 47.007 577.816 46.499
 578.184 46.499 c 578.551 46.499 579.074 45.32 579.344 43.874 c 579.613 
42.433 580.16 41.249 580.551 41.249 c 580.945 41.249 581.27 40.746 581.27
 40.124 c 581.27 39.507 581.566 38.999 581.934 38.999 c 582.301 38.999 582.824
 37.82 583.094 36.374 c 583.363 34.933 583.91 33.749 584.301 33.749 c 584.695
 33.749 585.02 33.246 585.02 32.624 c 585.02 32.007 585.316 31.499 585.684
 31.499 c 586.051 31.499 586.574 30.32 586.844 28.874 c 587.113 27.433 587.66
 26.249 588.051 26.249 c 588.445 26.249 588.77 25.746 588.77 25.124 c 588.77
 24.507 589.066 23.999 589.434 23.999 c 589.801 23.999 590.324 22.82 590.594
 21.374 c 590.863 19.933 591.41 18.749 591.801 18.749 c 592.195 18.749 592.52
 18.246 592.52 17.624 c 592.52 17.007 592.816 16.499 593.184 16.499 c 593.551
 16.499 594.074 15.32 594.344 13.874 c 594.613 12.433 595.16 11.249 595.551
 11.249 c 595.945 11.249 596.27 10.746 596.27 10.124 c 596.27 9.507 596.566
 8.999 596.934 8.999 c 597.301 8.999 597.824 7.82 598.094 6.374 c 598.363
 4.933 598.91 3.749 599.301 3.749 c 599.695 3.749 600.02 2.906 600.02 1.874
 c 600.02 0.843 599.863 -0.001 599.672 -0.001 c 599.48 -0.001 588.703 10.632
 575.719 23.624 c 562.738 36.621 551.613 47.249 551 47.249 c 550.375 47.249
 549.672 46.269 549.395 44.999 c 549.121 43.765 548.59 42.749 548.207 42.749
 c 547.828 42.749 547.52 42.078 547.52 41.249 c 547.52 40.425 547.207 39.749
 546.828 39.749 c 546.449 39.749 545.914 38.738 545.645 37.499 c 545.371
 36.265 544.84 35.249 544.457 35.249 c 544.078 35.249 543.77 34.578 543.77
 33.749 c 543.77 32.925 543.457 32.249 543.078 32.249 c 542.699 32.249 542.164
 31.238 541.895 29.999 c 541.621 28.765 541.09 27.749 540.707 27.749 c 540.328
 27.749 540.02 27.078 540.02 26.249 c 540.02 25.425 539.707 24.749 539.328
 24.749 c 538.949 24.749 538.414 23.738 538.145 22.499 c 537.871 21.265 
537.34 20.249 536.957 20.249 c 536.578 20.249 536.27 19.578 536.27 18.749
 c 536.27 17.925 535.957 17.249 535.578 17.249 c 535.199 17.249 534.664 
16.238 534.395 14.999 c 534.121 13.765 533.59 12.749 533.207 12.749 c 532.828
 12.749 532.52 12.078 532.52 11.249 c 532.52 10.425 532.207 9.749 531.828
 9.749 c 531.449 9.749 530.914 8.738 530.645 7.499 c 530.371 6.265 529.84
 5.249 529.457 5.249 c 529.078 5.249 528.77 4.578 528.77 3.749 c 528.77 
2.925 528.43 2.249 528.02 2.249 c 527.605 2.249 527.27 1.746 527.27 1.124
 c 527.27 0.14 522.559 -0.001 489.395 -0.001 c 468.563 -0.001 451.52 0.191
 451.52 0.421 c 451.52 0.652 468.059 17.374 488.27 37.581 c 525.023 74.32
 l 487.938 111.41 l 467.539 131.812 450.664 148.499 450.434 148.499 c 450.207
 148.499 450.02 115.089 450.02 74.249 c 450.02 -0.001 l 298.207 -0.001 l
 214.707 -0.001 146.281 0.253 146.145 0.562 c 145.789 1.359 141.098 3.749
 139.895 3.749 c 139.344 3.749 138.781 4.003 138.645 4.312 c 138.289 5.109
 133.598 7.499 132.395 7.499 c 131.844 7.499 131.281 7.753 131.145 8.062
 c 130.789 8.859 126.098 11.249 124.895 11.249 c 124.344 11.249 123.781 
11.503 123.645 11.812 c 123.289 12.609 118.598 14.999 117.395 14.999 c 116.844
 14.999 116.281 15.253 116.145 15.562 c 115.789 16.359 111.098 18.749 109.895
 18.749 c 109.344 18.749 108.781 19.003 108.645 19.312 c 108.289 20.109 
103.598 22.499 102.395 22.499 c 101.844 22.499 101.281 22.753 101.145 23.062
 c 100.789 23.859 96.098 26.249 94.895 26.249 c 94.344 26.249 93.781 26.503
 93.645 26.812 c 93.289 27.609 88.598 29.999 87.395 29.999 c 86.844 29.999
 86.281 30.253 86.145 30.562 c 85.781 31.378 81.082 33.749 79.832 33.749
 c 79.246 33.749 78.77 34.05 78.77 34.414 c 78.77 34.777 78.008 35.277 77.082
 35.519 c 75.836 35.843 65.902 31.218 39.395 17.972 c 6.23 1.402 1.52 -0.782
 1.52 0.425 c h
150.02 37.124 m 150.02 56.718 149.766 72.749 149.457 72.746 c 147.949 72.734
 102.422 49.32 102.602 48.652 c 102.863 47.683 148.688 1.617 149.457 1.55
 c 149.766 1.523 150.02 17.531 150.02 37.124 c h
112.855 112.164 m 133.297 132.601 150.02 149.476 150.02 149.664 c 150.02
 149.847 116.605 149.999 75.77 149.999 c 34.93 149.999 1.52 149.812 1.52
 149.585 c 1.52 149.246 75.043 75.214 75.543 75.05 c 75.629 75.023 92.418
 91.722 112.855 112.164 c h
73.555 451.687 m 73.184 452.617 67.813 463.48 61.617 475.828 c 50.348 498.281
 l 2.027 449.999 l 74.23 449.999 l h
598.52 450.417 m 598.52 450.644 582.133 467.218 562.105 487.246 c 525.691
 523.66 l 488.867 486.831 l 452.043 449.999 l 525.281 449.999 l 565.563 
449.999 598.52 450.187 598.52 450.417 c h
150.02 524.738 m 150.02 597.976 l 76.363 524.328 l 112.629 487.964 l 132.574
 467.964 149.145 451.578 149.457 451.55 c 149.766 451.523 150.02 484.456
 150.02 524.738 c h
468.414 533.996 m 477.891 538.738 485.754 542.874 485.895 543.183 c 486.031
 543.496 486.594 543.749 487.145 543.749 c 488.348 543.749 493.039 546.144
 493.395 546.937 c 493.531 547.249 494.289 547.499 495.082 547.499 c 495.871
 547.499 496.52 547.839 496.52 548.249 c 496.52 548.664 497.023 548.999 
497.645 548.999 c 498.262 548.999 498.77 549.355 498.77 549.789 c 498.77
 550.578 451.223 598.499 450.438 598.499 c 450.207 598.499 450.02 581.937
 450.02 561.687 c 450.02 541.441 450.281 524.988 450.602 525.124 c 450.922
 525.265 458.938 529.257 468.414 533.996 c h
468.414 533.996 m f
1.52 0.421 m 1.52 0.652 12.359 11.679 25.609 24.925 c 47.586 46.894 49.582
 49.097 48.344 50.007 c 47.594 50.554 46.539 50.999 46 50.999 c 45.461 50.999
 45.02 51.339 45.02 51.749 c 45.02 52.164 44.539 52.499 43.953 52.499 c 
42.703 52.499 38.004 54.874 37.645 55.687 c 37.504 55.999 36.941 56.249 
36.391 56.249 c 35.188 56.249 30.496 58.644 30.145 59.437 c 30.004 59.749
 29.441 59.999 28.891 59.999 c 27.688 59.999 22.996 62.394 22.645 63.187
 c 22.504 63.499 21.941 63.749 21.391 63.749 c 20.188 63.749 15.496 66.144
 15.145 66.937 c 15.004 67.249 14.441 67.499 13.891 67.499 c 12.688 67.499
 7.996 69.894 7.645 70.687 c 7.504 70.999 7.027 71.249 6.578 71.249 c 6.129
 71.249 4.477 71.843 2.906 72.562 c 0.059 73.874 l 0.027 261.374 l 0 448.874
 l 37.711 524.328 l 18.895 561.945 l 8.547 582.636 0.199 599.679 0.344 599.828
 c 0.488 599.972 11.805 588.894 25.492 575.21 c 48.039 552.667 50.465 550.46
 51.297 551.726 c 51.805 552.496 57.43 563.664 63.805 576.542 c 75.395 599.956
 l 262.867 599.98 l 450.34 599.999 l 475.492 587.437 l 489.324 580.531 500.754
 574.624 500.895 574.312 c 501.031 574.003 501.789 573.749 502.582 573.749
 c 503.371 573.749 504.02 573.441 504.02 573.062 c 504.02 572.683 505.031
 572.148 506.27 571.874 c 507.504 571.605 508.52 571.07 508.52 570.691 c
 508.52 570.312 509.191 569.999 510.02 569.999 c 510.844 569.999 511.52 
569.691 511.52 569.312 c 511.52 568.933 512.531 568.398 513.77 568.124 c
 515.004 567.855 516.02 567.32 516.02 566.941 c 516.02 566.562 516.691 566.249
 517.52 566.249 c 518.344 566.249 519.02 565.941 519.02 565.562 c 519.02
 565.183 520.031 564.648 521.27 564.374 c 522.504 564.105 523.52 563.57 
523.52 563.191 c 523.52 562.812 523.996 562.499 524.582 562.499 c 525.832
 562.499 530.531 564.874 530.895 565.687 c 531.031 565.999 531.594 566.249
 532.145 566.249 c 533.348 566.249 538.039 568.644 538.395 569.437 c 538.531
 569.749 539.094 569.999 539.645 569.999 c 540.848 569.999 545.539 572.394
 545.895 573.187 c 546.031 573.499 546.629 573.749 547.219 573.749 c 547.813
 573.749 549.633 574.593 551.27 575.624 c 552.902 576.656 554.723 577.499
 555.316 577.499 c 555.906 577.499 556.504 577.753 556.645 578.062 c 556.996
 578.859 561.688 581.249 562.891 581.249 c 563.441 581.249 564.004 581.507
 564.145 581.816 c 564.328 582.238 595.563 598.218 599.434 599.874 c 602.305
 601.105 596.523 594.796 575.57 573.835 c 559.605 557.863 551.539 549.292
 552.32 549.132 c 552.98 548.999 553.52 548.578 553.52 548.195 c 553.52 
547.816 554.191 547.499 555.02 547.499 c 555.844 547.499 556.52 547.191 
556.52 546.812 c 556.52 546.433 557.531 545.898 558.77 545.624 c 560.004
 545.355 561.02 544.82 561.02 544.441 c 561.02 544.062 561.691 543.749 562.52
 543.749 c 563.344 543.749 564.02 543.441 564.02 543.062 c 564.02 542.683
 565.031 542.148 566.27 541.874 c 567.504 541.605 568.52 541.07 568.52 540.691
 c 568.52 540.312 569.191 539.999 570.02 539.999 c 570.844 539.999 571.52
 539.691 571.52 539.312 c 571.52 538.933 572.531 538.398 573.77 538.124 
c 575.004 537.855 576.02 537.32 576.02 536.941 c 576.02 536.562 576.691 
536.249 577.52 536.249 c 578.344 536.249 579.02 535.941 579.02 535.562 c
 579.02 535.183 580.031 534.648 581.27 534.374 c 582.504 534.105 583.52 
533.57 583.52 533.191 c 583.52 532.812 584.191 532.499 585.02 532.499 c 
585.844 532.499 586.52 532.191 586.52 531.812 c 586.52 531.433 587.531 530.898
 588.77 530.624 c 590.004 530.355 591.02 529.82 591.02 529.441 c 591.02 
529.062 591.691 528.749 592.52 528.749 c 593.344 528.749 594.02 528.449 
594.02 528.081 c 594.02 527.714 594.902 527.191 595.984 526.921 c 597.066
 526.648 598.414 525.96 598.984 525.394 c 599.855 524.519 600.02 495.273
 600.02 337.179 c 600.02 149.999 l 526.418 149.999 l 526.945 148.312 l 527.234
 147.386 527.695 146.456 527.969 146.249 c 528.668 145.73 531.02 140.578
 531.02 139.574 c 531.02 139.121 531.277 138.749 531.59 138.749 c 532.195
 138.749 534.77 133.277 534.77 131.996 c 534.77 131.585 535.027 131.249 
535.34 131.249 c 535.945 131.249 538.52 125.777 538.52 124.496 c 538.52 
124.085 538.777 123.749 539.09 123.749 c 539.695 123.749 542.27 118.277 
542.27 116.996 c 542.27 116.585 542.527 116.249 542.84 116.249 c 543.445
 116.249 546.02 110.777 546.02 109.496 c 546.02 109.085 546.277 108.749 
546.59 108.749 c 547.195 108.749 549.77 103.277 549.77 101.996 c 549.77 
99.574 554.324 103.617 575.566 124.874 c 588.547 137.871 599.359 148.499
 599.594 148.499 c 599.828 148.499 600.02 147.656 600.02 146.624 c 600.02
 145.593 599.707 144.749 599.328 144.749 c 598.949 144.749 598.414 143.738
 598.145 142.499 c 597.871 141.265 597.34 140.249 596.957 140.249 c 596.578
 140.249 596.27 139.578 596.27 138.749 c 596.27 137.925 595.957 137.249 
595.578 137.249 c 595.199 137.249 594.664 136.238 594.395 134.999 c 594.121
 133.765 593.59 132.749 593.207 132.749 c 592.828 132.749 592.52 132.078
 592.52 131.249 c 592.52 130.425 592.207 129.749 591.828 129.749 c 591.449
 129.749 590.914 128.738 590.645 127.499 c 590.371 126.265 589.84 125.249
 589.457 125.249 c 589.078 125.249 588.77 124.578 588.77 123.749 c 588.77
 122.925 588.457 122.249 588.078 122.249 c 587.699 122.249 587.164 121.238
 586.895 119.999 c 586.621 118.765 586.09 117.749 585.707 117.749 c 585.328
 117.749 585.02 117.078 585.02 116.249 c 585.02 115.425 584.707 114.749 
584.328 114.749 c 583.949 114.749 583.414 113.738 583.145 112.499 c 582.871
 111.265 582.34 110.249 581.957 110.249 c 581.578 110.249 581.27 109.578
 581.27 108.749 c 581.27 107.925 580.957 107.249 580.578 107.249 c 580.199
 107.249 579.664 106.238 579.395 104.999 c 579.121 103.765 578.59 102.749
 578.207 102.749 c 577.828 102.749 577.52 102.078 577.52 101.249 c 577.52
 100.425 577.207 99.749 576.828 99.749 c 576.449 99.749 575.914 98.738 575.645
 97.499 c 575.371 96.265 574.84 95.249 574.457 95.249 c 574.078 95.249 573.77
 94.578 573.77 93.749 c 573.77 92.925 573.457 92.249 573.078 92.249 c 572.699
 92.249 572.164 91.238 571.895 89.999 c 571.621 88.765 571.09 87.749 570.707
 87.749 c 570.328 87.749 570.02 87.078 570.02 86.249 c 570.02 85.425 569.707
 84.749 569.328 84.749 c 568.949 84.749 568.414 83.738 568.145 82.499 c 
567.871 81.265 567.34 80.249 566.957 80.249 c 566.578 80.249 566.27 79.605
 566.27 78.812 c 566.27 78.023 565.875 77.246 565.395 77.085 c 564.34 76.734
 564.219 72.074 565.246 71.374 c 566.102 70.789 568.52 65.769 568.52 64.574
 c 568.52 64.121 568.777 63.749 569.09 63.749 c 569.695 63.749 572.27 58.277
 572.27 56.996 c 572.27 56.585 572.527 56.249 572.84 56.249 c 573.445 56.249
 576.02 50.777 576.02 49.496 c 576.02 49.085 576.277 48.749 576.59 48.749
 c 577.195 48.749 579.77 43.277 579.77 41.996 c 579.77 41.585 580.027 41.249
 580.34 41.249 c 580.945 41.249 583.52 35.777 583.52 34.496 c 583.52 34.085
 583.777 33.749 584.09 33.749 c 584.695 33.749 587.27 28.277 587.27 26.996
 c 587.27 26.585 587.527 26.249 587.84 26.249 c 588.445 26.249 591.02 20.777
 591.02 19.496 c 591.02 19.085 591.277 18.749 591.59 18.749 c 592.195 18.749
 594.77 13.277 594.77 11.996 c 594.77 11.585 595.027 11.249 595.34 11.249
 c 595.945 11.249 598.52 5.777 598.52 4.496 c 598.52 4.085 598.855 3.749
 599.27 3.749 c 599.68 3.749 600.02 2.906 600.02 1.874 c 600.02 0.843 599.863
 -0.001 599.672 -0.001 c 599.48 -0.001 588.703 10.632 575.719 23.624 c 562.738
 36.621 551.613 47.249 551 47.249 c 550.375 47.249 549.672 46.269 549.395
 44.999 c 549.121 43.765 548.59 42.749 548.207 42.749 c 547.828 42.749 547.52
 42.078 547.52 41.249 c 547.52 40.425 547.207 39.749 546.828 39.749 c 546.449
 39.749 545.914 38.738 545.645 37.499 c 545.371 36.265 544.84 35.249 544.457
 35.249 c 544.078 35.249 543.77 34.578 543.77 33.749 c 543.77 32.925 543.457
 32.249 543.078 32.249 c 542.699 32.249 542.164 31.238 541.895 29.999 c 
541.621 28.765 541.09 27.749 540.707 27.749 c 540.328 27.749 540.02 27.078
 540.02 26.249 c 540.02 25.425 539.707 24.749 539.328 24.749 c 538.949 24.749
 538.414 23.738 538.145 22.499 c 537.871 21.265 537.34 20.249 536.957 20.249
 c 536.578 20.249 536.27 19.578 536.27 18.749 c 536.27 17.925 535.957 17.249
 535.578 17.249 c 535.199 17.249 534.664 16.238 534.395 14.999 c 534.121
 13.765 533.59 12.749 533.207 12.749 c 532.828 12.749 532.52 12.078 532.52
 11.249 c 532.52 10.425 532.207 9.749 531.828 9.749 c 531.449 9.749 530.914
 8.738 530.645 7.499 c 530.371 6.265 529.84 5.249 529.457 5.249 c 529.078
 5.249 528.77 4.578 528.77 3.749 c 528.77 2.925 528.43 2.249 528.02 2.249
 c 527.605 2.249 527.27 1.746 527.27 1.124 c 527.27 0.14 522.559 -0.001 
489.395 -0.001 c 468.563 -0.001 451.52 0.191 451.52 0.421 c 451.52 0.652
 468.059 17.374 488.27 37.581 c 525.023 74.32 l 487.938 111.41 l 467.539
 131.812 450.664 148.499 450.434 148.499 c 450.207 148.499 450.02 115.089
 450.02 74.249 c 450.02 -0.001 l 298.953 -0.001 l 156.535 -0.001 147.746
 0.078 145.391 1.312 c 144.016 2.035 142.781 2.878 142.645 3.187 c 142.504
 3.499 141.941 3.749 141.391 3.749 c 140.188 3.749 135.496 6.144 135.145
 6.937 c 135.004 7.249 134.441 7.499 133.891 7.499 c 132.688 7.499 127.996
 9.894 127.645 10.687 c 127.504 10.999 126.941 11.249 126.391 11.249 c 125.188
 11.249 120.496 13.644 120.145 14.437 c 120.004 14.749 119.441 14.999 118.891
 14.999 c 117.688 14.999 112.996 17.394 112.645 18.187 c 112.504 18.499 
111.941 18.749 111.391 18.749 c 110.188 18.749 105.496 21.144 105.145 21.937
 c 105.004 22.249 104.441 22.499 103.891 22.499 c 102.688 22.499 97.996 
24.894 97.645 25.687 c 97.504 25.999 96.941 26.249 96.391 26.249 c 95.188
 26.249 90.496 28.644 90.145 29.437 c 90.004 29.749 89.441 29.999 88.891
 29.999 c 87.688 29.999 82.996 32.394 82.645 33.187 c 82.504 33.499 81.832
 33.761 81.145 33.777 c 80.457 33.789 79.238 34.296 78.438 34.902 c 77.637
 35.507 76.457 35.999 75.813 35.996 c 75.168 35.996 58.465 27.89 38.688 
17.996 c 18.914 8.097 2.461 -0.001 2.125 -0.001 c 1.793 -0.001 1.52 0.191
 1.52 0.421 c h
150.02 37.476 m 150.02 71.613 149.949 73.425 148.688 72.914 c 147.957 72.621
 137.008 67.195 124.355 60.859 c 101.355 49.343 l 125.125 25.468 l 138.195
 12.339 149.145 1.574 149.457 1.55 c 149.766 1.523 150.02 17.691 150.02 
37.476 c h
112.855 112.164 m 133.297 132.601 150.02 149.476 150.02 149.664 c 150.02
 149.847 116.605 149.999 75.77 149.999 c 34.93 149.999 1.52 149.812 1.52
 149.585 c 1.52 149.246 75.043 75.214 75.543 75.05 c 75.629 75.023 92.418
 91.722 112.855 112.164 c h
74.262 451.312 m 73.836 452.035 68.316 462.999 61.988 475.679 c 50.492 
498.73 l 26.379 474.64 l 13.117 461.39 2.27 450.429 2.27 450.277 c 2.27 
450.124 18.641 449.999 38.648 449.999 c 73.094 449.999 74.988 450.07 74.262
 451.312 c h
598.52 450.417 m 598.52 450.886 526.016 523.499 525.547 523.499 c 525.172
 523.499 452.27 450.644 452.27 450.269 c 452.27 450.121 485.176 449.999 
525.395 449.999 c 565.613 449.999 598.52 450.187 598.52 450.417 c h
150.02 524.624 m 150.02 564.843 149.898 597.749 149.75 597.749 c 149.379
 597.749 76.52 524.847 76.52 524.476 c 76.52 523.941 148.871 451.601 149.457
 451.55 c 149.766 451.523 150.02 484.406 150.02 524.624 c h
455.258 527.062 m 457.531 528.199 459.563 529.304 459.77 529.523 c 459.973
 529.738 461.66 530.574 463.52 531.374 c 465.375 532.179 467.063 533.035
 467.27 533.277 c 467.473 533.523 474.645 537.206 483.207 541.468 c 491.766
 545.726 498.77 549.519 498.77 549.894 c 498.77 550.617 451.152 598.499 
450.438 598.499 c 450.207 598.499 450.02 581.964 450.02 561.749 c 450.02
 541.539 450.266 524.999 450.57 524.999 c 450.871 524.999 452.98 525.929
 455.258 527.062 c h
455.258 527.062 m f
2.715 1.581 m 3.5 2.453 14.523 13.542 27.215 26.23 c 50.285 49.292 l 0.02
 74.371 l 0.02 262.187 l 0.02 365.484 0.27 450.003 0.582 450.003 c 0.891
 450.007 1.793 451.609 2.586 453.566 c 3.383 455.523 4.234 457.296 4.484
 457.499 c 4.73 457.706 5.59 459.394 6.395 461.249 c 7.195 463.109 8.039
 464.796 8.27 464.999 c 8.496 465.206 9.34 466.894 10.145 468.749 c 10.945
 470.609 11.789 472.296 12.02 472.499 c 12.246 472.706 13.09 474.394 13.895
 476.249 c 14.695 478.109 15.539 479.796 15.77 479.999 c 15.996 480.206 
16.84 481.894 17.645 483.749 c 18.445 485.609 19.289 487.296 19.52 487.499
 c 19.746 487.706 20.59 489.394 21.395 491.249 c 22.195 493.109 23.039 494.796
 23.27 494.999 c 23.496 495.206 24.34 496.894 25.145 498.749 c 25.945 500.609
 26.789 502.296 27.02 502.499 c 27.246 502.706 28.09 504.394 28.895 506.249
 c 29.695 508.109 30.539 509.796 30.77 509.999 c 30.996 510.206 31.84 511.894
 32.645 513.749 c 33.445 515.609 34.281 517.296 34.496 517.499 c 35.242 
518.206 37.52 523.55 37.52 524.589 c 37.52 525.824 35.137 530.519 34.332
 530.874 c 34.02 531.015 33.77 531.578 33.77 532.128 c 33.77 533.331 31.375
 538.023 30.582 538.374 c 30.27 538.515 30.02 539.078 30.02 539.628 c 30.02
 540.831 27.625 545.523 26.832 545.874 c 26.52 546.015 26.27 546.578 26.27
 547.128 c 26.27 548.331 23.875 553.023 23.082 553.374 c 22.77 553.515 22.52
 554.078 22.52 554.628 c 22.52 555.831 20.125 560.523 19.332 560.874 c 19.02
 561.015 18.77 561.578 18.77 562.128 c 18.77 563.331 16.375 568.023 15.582
 568.374 c 15.27 568.515 15.02 569.078 15.02 569.628 c 15.02 570.831 12.625
 575.523 11.832 575.874 c 11.52 576.015 11.27 576.578 11.27 577.128 c 11.27
 578.331 8.875 583.023 8.082 583.374 c 7.77 583.515 7.52 584.078 7.52 584.628
 c 7.52 585.831 5.125 590.523 4.332 590.874 c 4.02 591.015 3.77 591.617 
3.77 592.214 c 3.77 592.816 3.23 594.124 2.574 595.128 c -1.273 600.999 
4.52 595.867 26.27 574.128 c 50.645 549.769 l 51.766 552.199 l 52.383 553.535
 53.07 554.796 53.289 554.999 c 53.504 555.206 54.34 556.894 55.145 558.749
 c 55.945 560.609 56.789 562.296 57.02 562.499 c 57.246 562.706 58.09 564.394
 58.895 566.249 c 59.695 568.109 60.539 569.796 60.77 569.999 c 60.996 570.206
 61.84 571.894 62.645 573.749 c 63.445 575.609 64.289 577.296 64.52 577.499
 c 64.746 577.706 65.59 579.394 66.395 581.249 c 67.195 583.109 68.039 584.796
 68.27 584.999 c 68.496 585.206 69.34 586.894 70.145 588.749 c 70.945 590.609
 71.805 592.296 72.051 592.499 c 72.301 592.706 73.152 594.48 73.949 596.437
 c 75.395 599.996 l 263.645 599.941 l 367.18 599.91 451.473 599.714 450.957
 599.503 c 449.777 599.027 449.563 524.999 450.742 524.999 c 451.523 524.999
 456.898 527.382 457.52 527.999 c 457.723 528.206 467.258 533.074 478.707
 538.82 c 490.152 544.562 499.52 549.445 499.52 549.667 c 499.52 549.89 
488.641 560.968 475.348 574.289 c 462.051 587.605 451.691 598.499 452.328
 598.499 c 452.961 598.499 454.137 598.007 454.938 597.402 c 455.738 596.796
 456.957 596.289 457.645 596.277 c 458.332 596.261 459.004 595.999 459.145
 595.687 c 459.496 594.894 464.188 592.499 465.391 592.499 c 465.941 592.499
 466.504 592.249 466.645 591.937 c 466.996 591.144 471.688 588.749 472.891
 588.749 c 473.441 588.749 474.004 588.499 474.145 588.187 c 474.496 587.394
 479.188 584.999 480.391 584.999 c 480.941 584.999 481.504 584.749 481.645
 584.437 c 481.996 583.644 486.688 581.249 487.891 581.249 c 488.441 581.249
 489.004 580.999 489.145 580.687 c 489.496 579.894 494.188 577.499 495.391
 577.499 c 495.941 577.499 496.504 577.249 496.645 576.937 c 496.996 576.144
 501.688 573.749 502.891 573.749 c 503.441 573.749 504.004 573.499 504.145
 573.187 c 504.496 572.394 509.188 569.999 510.391 569.999 c 510.941 569.999
 511.504 569.749 511.645 569.437 c 511.996 568.644 516.688 566.249 517.891
 566.249 c 518.441 566.249 519.004 565.999 519.145 565.687 c 519.281 565.378
 520.668 564.48 522.223 563.687 c 525.055 562.246 l 542.848 571.187 l 552.637
 576.105 560.754 580.378 560.895 580.687 c 561.031 580.999 561.594 581.249
 562.145 581.249 c 563.348 581.249 568.039 583.644 568.395 584.437 c 568.531
 584.749 569.094 584.999 569.645 584.999 c 570.848 584.999 575.539 587.394
 575.895 588.187 c 576.031 588.499 576.594 588.749 577.145 588.749 c 578.348
 588.749 583.039 591.144 583.395 591.937 c 583.531 592.249 584.094 592.499
 584.645 592.499 c 585.848 592.499 590.539 594.894 590.895 595.687 c 591.031
 595.999 591.594 596.249 592.145 596.249 c 593.348 596.249 598.039 598.644
 598.395 599.437 c 598.754 600.249 600.02 600.132 600.02 599.285 c 600.02
 598.894 589.016 587.566 575.566 574.113 c 552.906 551.449 551.215 549.578
 552.504 548.601 c 553.27 548.023 554.457 547.539 555.145 547.527 c 555.832
 547.511 556.504 547.249 556.645 546.937 c 556.996 546.144 561.688 543.749
 562.891 543.749 c 563.441 543.749 564.004 543.499 564.145 543.187 c 564.535
 542.304 568.996 539.999 570.32 539.999 c 570.98 539.999 571.52 539.664 
571.52 539.249 c 571.52 538.839 572.023 538.499 572.645 538.499 c 573.262
 538.499 573.77 538.164 573.77 537.749 c 573.77 537.339 574.102 536.999 
574.512 536.999 c 575.793 536.999 581.27 534.425 581.27 533.824 c 581.27
 533.507 581.602 533.249 582.012 533.249 c 583.293 533.249 588.77 530.675
 588.77 530.074 c 588.77 529.757 589.141 529.499 589.594 529.499 c 590.598
 529.499 595.746 527.152 596.27 526.453 c 596.473 526.179 597.402 525.718
 598.332 525.425 c 600.02 524.902 l 600.02 149.999 l 525.91 149.999 l 526.777
 148.132 l 527.254 147.105 527.895 146.261 528.207 146.257 c 528.516 146.257
 528.77 145.714 528.77 145.054 c 528.77 143.73 531.07 139.269 531.957 138.874
 c 532.266 138.738 532.52 138.117 532.52 137.492 c 532.52 136.218 534.84
 131.761 535.707 131.374 c 536.016 131.238 536.27 130.617 536.27 129.992
 c 536.27 128.718 538.59 124.261 539.457 123.874 c 539.766 123.738 540.02
 123.117 540.02 122.492 c 540.02 121.218 542.34 116.761 543.207 116.374 
c 543.516 116.238 543.77 115.617 543.77 114.992 c 543.77 113.718 546.09 
109.261 546.957 108.874 c 547.266 108.738 547.52 108.164 547.52 107.593 
c 547.52 105.749 550.113 101.289 551.199 101.269 c 551.781 101.261 562.91
 111.91 575.93 124.933 c 588.953 137.956 599.727 148.253 599.875 147.808
 c 600.211 146.8 598.355 142.499 597.586 142.499 c 597.273 142.499 597.02
 142.167 597.02 141.757 c 597.02 140.476 594.445 134.999 593.84 134.999 
c 593.527 134.999 593.27 134.667 593.27 134.257 c 593.27 132.976 590.695
 127.499 590.09 127.499 c 589.777 127.499 589.52 127.167 589.52 126.757 
c 589.52 125.476 586.945 119.999 586.34 119.999 c 586.027 119.999 585.77
 119.667 585.77 119.257 c 585.77 117.976 583.195 112.499 582.59 112.499 
c 582.277 112.499 582.02 112.167 582.02 111.757 c 582.02 110.476 579.445
 104.999 578.84 104.999 c 578.527 104.999 578.27 104.667 578.27 104.257 
c 578.27 102.976 575.695 97.499 575.09 97.499 c 574.777 97.499 574.52 97.167
 574.52 96.757 c 574.52 95.476 571.945 89.999 571.34 89.999 c 571.027 89.999
 570.77 89.667 570.77 89.257 c 570.77 87.976 568.195 82.499 567.59 82.499
 c 567.277 82.499 567.02 82.167 567.02 81.757 c 567.02 80.558 564.461 74.999
 563.91 74.999 c 563.637 74.999 563.801 74.16 564.277 73.132 c 564.754 72.105
 565.395 71.261 565.707 71.257 c 566.016 71.257 566.27 70.714 566.27 70.054
 c 566.27 68.73 568.57 64.269 569.457 63.874 c 569.766 63.738 570.02 63.117
 570.02 62.492 c 570.02 61.218 572.34 56.761 573.207 56.374 c 573.516 56.238
 573.77 55.617 573.77 54.992 c 573.77 53.718 576.09 49.261 576.957 48.874
 c 577.266 48.738 577.52 48.117 577.52 47.492 c 577.52 46.218 579.84 41.761
 580.707 41.374 c 581.016 41.238 581.27 40.617 581.27 39.992 c 581.27 38.718
 583.59 34.261 584.457 33.874 c 584.766 33.738 585.02 33.117 585.02 32.492
 c 585.02 31.218 587.34 26.761 588.207 26.374 c 588.516 26.238 588.77 25.617
 588.77 24.992 c 588.77 23.718 591.09 19.261 591.957 18.874 c 592.266 18.738
 592.52 18.117 592.52 17.492 c 592.52 16.218 594.84 11.761 595.707 11.374
 c 596.016 11.238 596.27 10.617 596.27 9.992 c 596.27 8.718 598.59 4.261
 599.457 3.874 c 599.766 3.738 600.02 2.73 600.02 1.632 c 600.02 -0.071 
596.445 3.206 575.73 23.917 c 561.422 38.218 551.098 47.984 550.605 47.679
 c 550.145 47.394 549.77 46.675 549.77 46.081 c 549.77 45.488 549.43 44.999
 549.02 44.999 c 548.605 44.999 548.27 44.667 548.27 44.257 c 548.27 42.976
 545.695 37.499 545.09 37.499 c 544.777 37.499 544.52 37.167 544.52 36.757
 c 544.52 35.476 541.945 29.999 541.34 29.999 c 541.027 29.999 540.77 29.667
 540.77 29.257 c 540.77 27.976 538.195 22.499 537.59 22.499 c 537.277 22.499
 537.02 22.167 537.02 21.757 c 537.02 20.476 534.445 14.999 533.84 14.999
 c 533.527 14.999 533.27 14.667 533.27 14.257 c 533.27 12.976 530.695 7.499
 530.09 7.499 c 529.777 7.499 529.52 7.167 529.52 6.757 c 529.52 6.347 528.934
 4.66 528.215 3.007 c 526.914 -0.001 l 451.285 -0.001 l 452.715 1.581 l 
453.5 2.453 470.16 19.175 489.734 38.742 c 525.324 74.316 l 487.672 111.972
 l 450.02 149.624 l 450.02 -0.001 l 148.813 -0.001 l 112.188 18.312 l 78.598
 35.105 75.395 36.554 73.602 35.765 c 72.523 35.292 71.473 34.722 71.27 
34.496 c 71.063 34.269 69.375 33.429 67.52 32.624 c 65.66 31.824 63.973 
30.98 63.77 30.749 c 63.563 30.523 61.875 29.679 60.02 28.874 c 58.16 28.074
 56.473 27.23 56.27 26.999 c 56.063 26.773 54.375 25.929 52.52 25.124 c 
50.66 24.324 48.973 23.48 48.77 23.249 c 48.563 23.023 46.875 22.179 45.02
 21.374 c 43.16 20.574 41.473 19.73 41.27 19.499 c 41.063 19.273 39.375 
18.429 37.52 17.624 c 35.66 16.824 33.973 15.98 33.77 15.749 c 33.563 15.523
 31.875 14.679 30.02 13.874 c 28.16 13.074 26.473 12.23 26.27 11.999 c 26.063
 11.773 24.375 10.929 22.52 10.124 c 20.66 9.324 18.973 8.48 18.77 8.249
 c 18.563 8.023 16.875 7.179 15.02 6.374 c 13.16 5.574 11.473 4.714 11.27
 4.468 c 11.063 4.218 9.293 3.367 7.332 2.57 c 5.375 1.777 3.773 0.874 3.77
 0.562 c 3.77 0.253 3.211 -0.001 2.527 -0.001 c 1.43 -0.001 1.453 0.187 
2.715 1.581 c h
150.02 37.175 m 150.02 73.601 l 148.332 73.078 l 147.402 72.785 146.473
 72.331 146.27 72.066 c 146.063 71.8 144.375 70.929 142.52 70.124 c 140.66
 69.324 138.973 68.48 138.77 68.249 c 138.563 68.023 136.875 67.179 135.02
 66.374 c 133.16 65.574 131.473 64.73 131.27 64.499 c 131.063 64.273 129.375
 63.429 127.52 62.624 c 125.66 61.824 123.973 60.98 123.77 60.749 c 123.563
 60.523 121.875 59.679 120.02 58.874 c 118.16 58.074 116.473 57.23 116.27
 56.999 c 116.063 56.773 114.375 55.929 112.52 55.124 c 110.66 54.324 108.973
 53.48 108.77 53.249 c 108.563 53.023 106.875 52.187 105.02 51.394 c 103.16
 50.605 101.488 49.839 101.301 49.699 c 101.008 49.48 149.313 0.749 149.828
 0.749 c 149.934 0.749 150.02 17.144 150.02 37.175 c h
113.008 112.011 m 133.363 132.367 150.02 149.242 150.02 149.511 c 150.02
 149.781 116.355 149.999 75.207 149.999 c 0.398 149.999 l 37.895 112.499
 l 58.516 91.874 75.523 74.999 75.691 74.999 c 75.859 74.999 92.652 91.656
 113.008 112.011 c h
74.836 450.562 m 74.664 450.874 74.059 452.222 73.484 453.562 c 72.91 454.906
 72.176 455.999 71.855 455.999 c 71.531 455.999 71.27 456.48 71.27 457.066
 c 71.27 458.316 68.895 463.015 68.082 463.374 c 67.77 463.515 67.52 464.078
 67.52 464.628 c 67.52 465.831 65.125 470.523 64.332 470.874 c 64.02 471.015
 63.77 471.578 63.77 472.128 c 63.77 473.331 61.375 478.023 60.582 478.374
 c 60.27 478.515 60.02 479.078 60.02 479.628 c 60.02 480.831 57.625 485.523
 56.832 485.874 c 56.52 486.015 56.27 486.578 56.27 487.128 c 56.27 488.331
 53.875 493.023 53.082 493.374 c 52.77 493.515 52.508 494.187 52.496 494.874
 c 52.48 495.562 51.996 496.749 51.422 497.511 c 50.449 498.792 48.582 497.109
 26.32 474.871 c 13.09 461.66 2.27 450.656 2.27 450.425 c 2.27 450.191 18.664
 449.999 38.707 449.999 c 58.746 449.999 75.004 450.253 74.836 450.562 c
 h
562.594 487.05 m 525.547 524.101 l 488.906 487.468 l 468.758 467.316 452.27
 450.644 452.27 450.417 c 452.27 450.187 485.426 449.999 525.953 449.999
 c 599.637 449.999 l h
149.688 597.581 m 149.504 597.765 132.832 581.39 112.637 561.195 c 75.918
 524.472 l 112.781 487.613 l 149.645 450.749 l 149.836 523.996 l 149.938
 564.281 149.875 597.394 149.688 597.581 c h
149.688 597.581 m f
2.715 1.581 m 3.5 2.453 14.52 13.539 27.207 26.222 c 39.891 38.902 50.27
 49.496 50.27 49.765 c 50.27 50.031 49.789 50.249 49.203 50.249 c 47.953
 50.249 43.254 52.624 42.895 53.437 c 42.754 53.749 42.191 53.999 41.641
 53.999 c 40.438 53.999 35.746 56.394 35.395 57.187 c 35.254 57.499 34.691
 57.749 34.141 57.749 c 32.938 57.749 28.246 60.144 27.895 60.937 c 27.754
 61.249 27.191 61.499 26.641 61.499 c 25.438 61.499 20.746 63.894 20.395
 64.687 c 20.254 64.999 19.691 65.249 19.141 65.249 c 17.938 65.249 13.246
 67.644 12.895 68.437 c 12.754 68.749 12.191 68.999 11.641 68.999 c 10.438
 68.999 5.746 71.394 5.395 72.187 c 5.254 72.499 4.582 72.761 3.895 72.777
 c 3.207 72.789 2.051 73.246 1.332 73.796 c 0.086 74.738 0.02 84.605 0.02
 262.398 c 0.02 365.578 0.27 450.003 0.582 450.003 c 0.891 450.007 1.793
 451.609 2.586 453.566 c 3.383 455.523 4.234 457.296 4.484 457.499 c 4.73
 457.706 5.59 459.394 6.395 461.249 c 7.195 463.109 8.039 464.796 8.27 464.999
 c 8.496 465.206 9.34 466.894 10.145 468.749 c 10.945 470.609 11.789 472.296
 12.02 472.499 c 12.246 472.706 13.09 474.394 13.895 476.249 c 14.695 478.109
 15.539 479.796 15.77 479.999 c 15.996 480.206 16.84 481.894 17.645 483.749
 c 18.445 485.609 19.289 487.296 19.52 487.499 c 19.746 487.706 20.59 489.394
 21.395 491.249 c 22.195 493.109 23.039 494.796 23.27 494.999 c 23.496 495.206
 24.34 496.894 25.145 498.749 c 25.945 500.609 26.789 502.296 27.02 502.499
 c 27.246 502.706 28.09 504.394 28.895 506.249 c 29.695 508.109 30.539 509.796
 30.77 509.999 c 30.996 510.206 31.84 511.894 32.645 513.749 c 33.445 515.609
 34.281 517.296 34.496 517.499 c 35.289 518.249 37.52 523.581 37.52 524.722
 c 37.52 526.027 35.207 530.488 34.332 530.874 c 34.02 531.015 33.77 531.636
 33.77 532.261 c 33.77 533.535 31.445 537.992 30.582 538.374 c 30.27 538.515
 30.02 539.136 30.02 539.761 c 30.02 541.035 27.695 545.492 26.832 545.874
 c 26.52 546.015 26.27 546.636 26.27 547.261 c 26.27 548.535 23.945 552.992
 23.082 553.374 c 22.77 553.515 22.52 554.136 22.52 554.761 c 22.52 556.035
 20.195 560.492 19.332 560.874 c 19.02 561.015 18.77 561.636 18.77 562.261
 c 18.77 563.535 16.445 567.992 15.582 568.374 c 15.27 568.515 15.02 569.136
 15.02 569.761 c 15.02 571.035 12.695 575.492 11.832 575.874 c 11.52 576.015
 11.27 576.636 11.27 577.261 c 11.27 578.535 8.945 582.992 8.082 583.374
 c 7.77 583.515 7.52 584.136 7.52 584.761 c 7.52 586.035 5.195 590.492 4.332
 590.874 c 4.02 591.015 3.77 591.71 3.77 592.421 c 3.77 593.132 3.273 594.371
 2.668 595.171 c 2.063 595.972 1.555 597.066 1.543 597.605 c 1.527 598.144
 12.133 588.019 25.109 575.105 c 38.082 562.191 49.188 551.222 49.781 550.73
 c 50.676 549.992 51.043 550.257 51.84 552.23 c 52.371 553.546 53.004 554.796
 53.246 554.999 c 53.488 555.206 54.34 556.894 55.145 558.749 c 55.945 560.609
 56.789 562.296 57.02 562.499 c 57.246 562.706 58.09 564.394 58.895 566.249
 c 59.695 568.109 60.539 569.796 60.77 569.999 c 60.996 570.206 61.84 571.894
 62.645 573.749 c 63.445 575.609 64.289 577.296 64.52 577.499 c 64.746 577.706
 65.59 579.394 66.395 581.249 c 67.195 583.109 68.039 584.796 68.27 584.999
 c 68.496 585.206 69.34 586.894 70.145 588.749 c 70.945 590.609 71.805 592.296
 72.051 592.499 c 72.301 592.706 73.152 594.48 73.949 596.437 c 75.395 599.996
 l 263.645 599.941 l 367.18 599.91 451.473 599.714 450.957 599.503 c 449.777
 599.027 449.563 524.999 450.742 524.999 c 451.547 524.999 456.93 527.402
 457.52 528.023 c 457.723 528.238 459.41 529.074 461.27 529.874 c 463.125
 530.679 464.813 531.523 465.02 531.749 c 465.223 531.98 466.91 532.824 
468.77 533.624 c 470.625 534.429 472.313 535.273 472.52 535.499 c 472.723
 535.73 474.41 536.574 476.27 537.374 c 478.125 538.179 479.813 539.023 
480.02 539.249 c 480.223 539.48 481.91 540.324 483.77 541.124 c 485.625 
541.929 487.313 542.773 487.52 542.999 c 487.723 543.23 489.41 544.074 491.27
 544.874 c 493.125 545.679 494.813 546.531 495.02 546.773 c 495.223 547.015
 496.473 547.648 497.789 548.179 c 499.762 548.976 500.027 549.343 499.289
 550.238 c 498.797 550.835 487.828 561.937 474.914 574.914 c 462 587.886
 451.703 598.499 452.027 598.499 c 452.965 598.499 460.867 594.437 461.145
 593.812 c 461.281 593.503 461.699 593.249 462.074 593.249 c 463.309 593.249
 468.77 590.66 468.77 590.074 c 468.77 589.757 469.102 589.499 469.512 589.499
 c 470.793 589.499 476.27 586.925 476.27 586.324 c 476.27 586.007 476.602
 585.749 477.012 585.749 c 478.293 585.749 483.77 583.175 483.77 582.574
 c 483.77 582.257 484.102 581.999 484.512 581.999 c 485.793 581.999 491.27
 579.425 491.27 578.824 c 491.27 578.507 491.602 578.249 492.012 578.249
 c 493.293 578.249 498.77 575.675 498.77 575.074 c 498.77 574.757 499.102
 574.499 499.512 574.499 c 500.793 574.499 506.27 571.925 506.27 571.324
 c 506.27 571.007 506.602 570.749 507.012 570.749 c 508.293 570.749 513.77
 568.175 513.77 567.574 c 513.77 567.257 514.102 566.999 514.512 566.999
 c 515.723 566.999 521.27 564.441 521.27 563.882 c 521.27 563.601 522.332
 563.136 523.629 562.851 c 525.633 562.414 527.859 563.277 538.441 568.605
 c 545.289 572.054 551.004 575.128 551.145 575.437 c 551.281 575.749 552.039
 575.999 552.832 575.999 c 553.621 575.999 554.27 576.312 554.27 576.691
 c 554.27 577.07 555.281 577.605 556.52 577.874 c 557.754 578.148 558.77
 578.683 558.77 579.062 c 558.77 579.441 559.441 579.749 560.27 579.749 
c 561.094 579.749 561.77 580.062 561.77 580.441 c 561.77 580.82 562.781 
581.355 564.02 581.624 c 565.254 581.898 566.27 582.433 566.27 582.812 c
 566.27 583.191 566.941 583.499 567.77 583.499 c 568.594 583.499 569.27 
583.812 569.27 584.191 c 569.27 584.57 570.281 585.105 571.52 585.374 c 
572.754 585.648 573.77 586.101 573.77 586.382 c 573.77 586.941 579.313 589.499
 580.523 589.499 c 580.934 589.499 581.27 589.757 581.27 590.074 c 581.27
 590.675 586.742 593.249 588.023 593.249 c 588.434 593.249 588.773 593.503
 588.777 593.812 c 588.785 594.124 590.977 595.39 593.652 596.624 c 596.328
 597.863 598.516 599.128 598.52 599.437 c 598.52 599.749 598.855 599.999
 599.27 599.999 c 599.68 599.999 600.02 599.675 600.02 599.277 c 600.02 
598.874 589.051 587.593 575.645 574.203 c 562.238 560.808 551.27 549.519
 551.27 549.113 c 551.27 548.703 552.281 548.148 553.52 547.874 c 554.754
 547.605 555.77 547.07 555.77 546.691 c 555.77 546.312 556.441 545.999 557.27
 545.999 c 558.094 545.999 558.77 545.691 558.77 545.312 c 558.77 544.933
 559.781 544.398 561.02 544.124 c 562.254 543.855 563.27 543.32 563.27 542.941
 c 563.27 542.562 563.941 542.249 564.77 542.249 c 565.594 542.249 566.27
 541.941 566.27 541.562 c 566.27 541.183 567.281 540.648 568.52 540.374 
c 569.754 540.105 570.77 539.57 570.77 539.191 c 570.77 538.812 571.441 
538.499 572.27 538.499 c 573.094 538.499 573.77 538.191 573.77 537.812 c
 573.77 537.433 574.781 536.898 576.02 536.624 c 577.254 536.355 578.27 
535.82 578.27 535.441 c 578.27 535.062 578.941 534.749 579.77 534.749 c 
580.594 534.749 581.27 534.441 581.27 534.062 c 581.27 533.683 582.281 533.148
 583.52 532.874 c 584.754 532.605 585.77 532.07 585.77 531.691 c 585.77 
531.312 586.441 530.999 587.27 530.999 c 588.094 530.999 588.77 530.691 
588.77 530.312 c 588.77 529.933 589.781 529.398 591.02 529.124 c 592.254
 528.855 593.27 528.32 593.27 527.941 c 593.27 527.562 593.941 527.249 594.77
 527.249 c 595.594 527.249 596.27 526.949 596.27 526.581 c 596.27 526.214
 597.113 525.703 598.145 525.445 c 600.02 524.972 l 600.02 149.999 l 562.895
 149.999 l 538.645 149.999 525.77 149.742 525.77 149.249 c 525.77 148.839
 526.105 148.499 526.52 148.499 c 526.93 148.499 527.27 147.996 527.27 147.374
 c 527.27 146.757 527.566 146.249 527.934 146.249 c 528.301 146.249 528.824
 145.07 529.094 143.624 c 529.363 142.183 529.91 140.999 530.301 140.999
 c 530.695 140.999 531.02 140.496 531.02 139.874 c 531.02 139.257 531.316
 138.749 531.684 138.749 c 532.051 138.749 532.574 137.57 532.844 136.124
 c 533.113 134.683 533.66 133.499 534.051 133.499 c 534.445 133.499 534.77
 132.996 534.77 132.374 c 534.77 131.757 535.066 131.249 535.434 131.249
 c 535.801 131.249 536.324 130.07 536.594 128.624 c 536.863 127.183 537.41
 125.999 537.801 125.999 c 538.195 125.999 538.52 125.496 538.52 124.874
 c 538.52 124.257 538.816 123.749 539.184 123.749 c 539.551 123.749 540.074
 122.57 540.344 121.124 c 540.613 119.683 541.16 118.499 541.551 118.499
 c 541.945 118.499 542.27 117.996 542.27 117.374 c 542.27 116.757 542.566
 116.249 542.934 116.249 c 543.301 116.249 543.824 115.07 544.094 113.624
 c 544.363 112.183 544.91 110.999 545.301 110.999 c 545.695 110.999 546.02
 110.496 546.02 109.874 c 546.02 109.257 546.316 108.749 546.684 108.749
 c 547.051 108.749 547.574 107.57 547.844 106.124 c 548.113 104.683 548.66
 103.499 549.051 103.499 c 549.445 103.499 549.77 102.996 549.77 102.374
 c 549.77 101.757 550.328 101.249 551.012 101.249 c 551.695 101.249 562.918
 111.917 575.949 124.956 c 593.395 142.41 599.715 148.3 599.918 147.296 
c 600.066 146.546 599.813 145.808 599.355 145.656 c 598.895 145.503 598.52
 144.73 598.52 143.937 c 598.52 143.148 598.207 142.499 597.828 142.499 
c 597.449 142.499 596.914 141.488 596.645 140.249 c 596.371 139.015 595.84
 137.999 595.457 137.999 c 595.078 137.999 594.77 137.328 594.77 136.499
 c 594.77 135.675 594.457 134.999 594.078 134.999 c 593.699 134.999 593.164
 133.988 592.895 132.749 c 592.621 131.515 592.09 130.499 591.707 130.499
 c 591.328 130.499 591.02 129.828 591.02 128.999 c 591.02 128.175 590.707
 127.499 590.328 127.499 c 589.949 127.499 589.414 126.488 589.145 125.249
 c 588.871 124.015 588.34 122.999 587.957 122.999 c 587.578 122.999 587.27
 122.328 587.27 121.499 c 587.27 120.675 586.957 119.999 586.578 119.999
 c 586.199 119.999 585.664 118.988 585.395 117.749 c 585.121 116.515 584.59
 115.499 584.207 115.499 c 583.828 115.499 583.52 114.828 583.52 113.999
 c 583.52 113.175 583.207 112.499 582.828 112.499 c 582.449 112.499 581.914
 111.488 581.645 110.249 c 581.371 109.015 580.84 107.999 580.457 107.999
 c 580.078 107.999 579.77 107.328 579.77 106.499 c 579.77 105.675 579.457
 104.999 579.078 104.999 c 578.699 104.999 578.164 103.988 577.895 102.749
 c 577.621 101.515 577.09 100.499 576.707 100.499 c 576.328 100.499 576.02
 99.828 576.02 98.999 c 576.02 98.175 575.707 97.499 575.328 97.499 c 574.949
 97.499 574.414 96.488 574.145 95.249 c 573.871 94.015 573.34 92.999 572.957
 92.999 c 572.578 92.999 572.27 92.328 572.27 91.499 c 572.27 90.675 571.957
 89.999 571.578 89.999 c 571.199 89.999 570.664 88.988 570.395 87.749 c 
570.121 86.515 569.59 85.499 569.207 85.499 c 568.828 85.499 568.52 84.828
 568.52 83.999 c 568.52 83.175 568.207 82.499 567.828 82.499 c 567.449 82.499
 566.914 81.488 566.645 80.249 c 566.371 79.015 565.84 77.999 565.457 77.999
 c 565.078 77.999 564.77 77.355 564.77 76.562 c 564.77 75.773 564.348 74.929
 563.832 74.687 c 563.082 74.339 563.082 74.164 563.832 73.812 c 564.348
 73.574 564.77 72.898 564.77 72.312 c 564.77 71.73 565.066 71.249 565.434
 71.249 c 565.801 71.249 566.324 70.07 566.594 68.624 c 566.863 67.183 567.41
 65.999 567.801 65.999 c 568.195 65.999 568.52 65.496 568.52 64.874 c 568.52
 64.257 568.816 63.749 569.184 63.749 c 569.551 63.749 570.074 62.57 570.344
 61.124 c 570.613 59.683 571.16 58.499 571.551 58.499 c 571.945 58.499 572.27
 57.996 572.27 57.374 c 572.27 56.757 572.566 56.249 572.934 56.249 c 573.301
 56.249 573.824 55.07 574.094 53.624 c 574.363 52.183 574.91 50.999 575.301
 50.999 c 575.695 50.999 576.02 50.496 576.02 49.874 c 576.02 49.257 576.316
 48.749 576.684 48.749 c 577.051 48.749 577.574 47.57 577.844 46.124 c 578.113
 44.683 578.66 43.499 579.051 43.499 c 579.445 43.499 579.77 42.996 579.77
 42.374 c 579.77 41.757 580.066 41.249 580.434 41.249 c 580.801 41.249 581.324
 40.07 581.594 38.624 c 581.863 37.183 582.41 35.999 582.801 35.999 c 583.195
 35.999 583.52 35.496 583.52 34.874 c 583.52 34.257 583.816 33.749 584.184
 33.749 c 584.551 33.749 585.074 32.57 585.344 31.124 c 585.613 29.683 586.16
 28.499 586.551 28.499 c 586.945 28.499 587.27 27.996 587.27 27.374 c 587.27
 26.757 587.566 26.249 587.934 26.249 c 588.301 26.249 588.824 25.07 589.094
 23.624 c 589.363 22.183 589.91 20.999 590.301 20.999 c 590.695 20.999 591.02
 20.496 591.02 19.874 c 591.02 19.257 591.316 18.749 591.684 18.749 c 592.051
 18.749 592.574 17.57 592.844 16.124 c 593.113 14.683 593.66 13.499 594.051
 13.499 c 594.445 13.499 594.77 12.996 594.77 12.374 c 594.77 11.757 595.066
 11.249 595.434 11.249 c 595.801 11.249 596.324 10.07 596.594 8.624 c 596.863
 7.183 597.41 5.999 597.801 5.999 c 598.195 5.999 598.52 5.496 598.52 4.874
 c 598.52 4.257 598.855 3.749 599.27 3.749 c 599.68 3.749 600.02 2.89 600.02
 1.835 c 600.02 0.238 595.988 3.949 575.988 23.96 c 562.773 37.183 551.469
 47.999 550.863 47.999 c 550.262 47.999 549.77 47.328 549.77 46.499 c 549.77
 45.675 549.457 44.999 549.078 44.999 c 548.699 44.999 548.164 43.988 547.895
 42.749 c 547.621 41.515 547.09 40.499 546.707 40.499 c 546.328 40.499 546.02
 39.828 546.02 38.999 c 546.02 38.175 545.707 37.499 545.328 37.499 c 544.949
 37.499 544.414 36.488 544.145 35.249 c 543.871 34.015 543.34 32.999 542.957
 32.999 c 542.578 32.999 542.27 32.328 542.27 31.499 c 542.27 30.675 541.957
 29.999 541.578 29.999 c 541.199 29.999 540.664 28.988 540.395 27.749 c 
540.121 26.515 539.59 25.499 539.207 25.499 c 538.828 25.499 538.52 24.828
 538.52 23.999 c 538.52 23.175 538.207 22.499 537.828 22.499 c 537.449 22.499
 536.914 21.488 536.645 20.249 c 536.371 19.015 535.84 17.999 535.457 17.999
 c 535.078 17.999 534.77 17.328 534.77 16.499 c 534.77 15.675 534.457 14.999
 534.078 14.999 c 533.699 14.999 533.164 13.988 532.895 12.749 c 532.621
 11.515 532.09 10.499 531.707 10.499 c 531.328 10.499 531.02 9.828 531.02
 8.999 c 531.02 8.175 530.707 7.499 530.328 7.499 c 529.949 7.499 529.414
 6.488 529.145 5.249 c 528.871 4.015 528.34 2.999 527.957 2.999 c 527.578
 2.999 527.27 2.328 527.27 1.499 c 527.27 0.023 526.77 -0.001 489.277 -0.001
 c 451.285 -0.001 l 452.715 1.581 l 453.5 2.453 470.09 19.105 489.582 38.585
 c 509.07 58.07 525.02 74.214 525.02 74.464 c 525.02 74.988 450.883 149.249
 450.363 149.249 c 450.172 149.249 450.02 115.671 450.02 74.624 c 450.02
 -0.001 l 298.895 -0.001 l 198.645 -0.001 147.77 0.253 147.77 0.749 c 147.77
 1.164 147.289 1.499 146.703 1.499 c 145.453 1.499 140.754 3.874 140.395
 4.687 c 140.254 4.999 139.691 5.249 139.141 5.249 c 137.938 5.249 133.246
 7.644 132.895 8.437 c 132.754 8.749 132.191 8.999 131.641 8.999 c 130.438
 8.999 125.746 11.394 125.395 12.187 c 125.254 12.499 124.691 12.749 124.141
 12.749 c 122.938 12.749 118.246 15.144 117.895 15.937 c 117.754 16.249 
117.191 16.499 116.641 16.499 c 115.438 16.499 110.746 18.894 110.395 19.687
 c 110.254 19.999 109.691 20.249 109.141 20.249 c 107.938 20.249 103.246
 22.644 102.895 23.437 c 102.754 23.749 102.191 23.999 101.641 23.999 c 
100.438 23.999 95.746 26.394 95.395 27.187 c 95.254 27.499 94.691 27.749
 94.141 27.749 c 92.938 27.749 88.246 30.144 87.895 30.937 c 87.754 31.249
 87.191 31.499 86.641 31.499 c 85.438 31.499 80.746 33.894 80.395 34.687
 c 80.254 34.999 79.563 35.249 78.855 35.249 c 78.148 35.249 77.215 35.605
 76.781 36.039 c 76.059 36.761 72.406 35.742 71.27 34.496 c 71.063 34.269
 69.375 33.429 67.52 32.624 c 65.66 31.824 63.973 30.98 63.77 30.749 c 63.563
 30.523 61.875 29.679 60.02 28.874 c 58.16 28.074 56.473 27.23 56.27 26.999
 c 56.063 26.773 54.375 25.929 52.52 25.124 c 50.66 24.324 48.973 23.48 
48.77 23.249 c 48.563 23.023 46.875 22.179 45.02 21.374 c 43.16 20.574 41.473
 19.73 41.27 19.499 c 41.063 19.273 39.375 18.429 37.52 17.624 c 35.66 16.824
 33.973 15.98 33.77 15.749 c 33.563 15.523 31.875 14.679 30.02 13.874 c 
28.16 13.074 26.473 12.23 26.27 11.999 c 26.063 11.773 24.375 10.929 22.52
 10.124 c 20.66 9.324 18.973 8.48 18.77 8.249 c 18.563 8.023 16.875 7.179
 15.02 6.374 c 13.16 5.574 11.473 4.714 11.27 4.468 c 11.063 4.218 9.293
 3.367 7.332 2.57 c 5.375 1.777 3.773 0.874 3.77 0.562 c 3.77 0.253 3.211
 -0.001 2.527 -0.001 c 1.43 -0.001 1.453 0.187 2.715 1.581 c h
150.02 37.175 m 150.02 73.601 l 148.332 73.078 l 147.402 72.785 146.473
 72.331 146.27 72.066 c 146.063 71.8 144.375 70.929 142.52 70.124 c 140.66
 69.324 138.973 68.48 138.77 68.249 c 138.563 68.023 136.875 67.179 135.02
 66.374 c 133.16 65.574 131.473 64.73 131.27 64.499 c 131.063 64.273 129.375
 63.429 127.52 62.624 c 125.66 61.824 123.973 60.98 123.77 60.749 c 123.563
 60.523 121.875 59.679 120.02 58.874 c 118.16 58.074 116.473 57.23 116.27
 56.999 c 116.063 56.773 114.375 55.929 112.52 55.124 c 110.66 54.324 108.973
 53.464 108.77 53.218 c 108.563 52.968 106.793 52.117 104.832 51.32 c 102.875
 50.527 101.383 49.539 101.516 49.124 c 101.824 48.16 148.711 0.917 149.457
 0.824 c 149.766 0.785 150.02 17.144 150.02 37.175 c h
113.008 112.011 m 133.363 132.367 150.02 149.242 150.02 149.511 c 150.02
 149.781 116.438 149.999 75.395 149.999 c 34.348 149.999 0.77 149.847 0.77
 149.656 c 0.77 149.14 75.031 74.999 75.547 74.999 c 75.797 74.999 92.652
 91.656 113.008 112.011 c h
75.02 450.449 m 75.02 451.203 72.43 455.609 71.832 455.874 c 71.52 456.015
 71.27 456.636 71.27 457.261 c 71.27 458.535 68.945 462.992 68.082 463.374
 c 67.77 463.515 67.52 464.136 67.52 464.761 c 67.52 466.035 65.195 470.492
 64.332 470.874 c 64.02 471.015 63.77 471.636 63.77 472.261 c 63.77 473.535
 61.445 477.992 60.582 478.374 c 60.27 478.515 60.02 479.136 60.02 479.761
 c 60.02 481.035 57.695 485.492 56.832 485.874 c 56.52 486.015 56.27 486.636
 56.27 487.261 c 56.27 488.535 53.945 492.992 53.082 493.374 c 52.77 493.515
 52.52 494.21 52.52 494.921 c 52.52 495.632 52.059 496.843 51.5 497.609 
c 50.559 498.898 48.609 497.136 26.375 474.925 c 13.117 461.683 2.27 450.656
 2.27 450.425 c 2.27 450.191 18.637 449.999 38.645 449.999 c 58.648 449.999
 75.02 450.203 75.02 450.449 c h
599.27 450.343 m 599.27 450.531 582.715 467.238 562.484 487.468 c 525.699
 524.253 l 488.984 487.542 l 468.789 467.351 452.27 450.644 452.27 450.417
 c 452.27 450.187 485.344 449.999 525.77 449.999 c 566.191 449.999 599.27
 450.156 599.27 450.343 c h
150.02 524.249 m 150.02 564.675 149.832 597.749 149.602 597.749 c 149.375
 597.749 132.668 581.23 112.477 561.035 c 75.766 524.32 l 112.328 487.609
 l 132.441 467.421 149.145 450.867 149.457 450.824 c 149.766 450.785 150.02
 483.828 150.02 524.249 c h
150.02 524.249 m f
2.426 1.164 m 2.957 1.8 3.832 2.73 4.367 3.226 c 4.902 3.722 5.746 4.566
 6.242 5.101 c 6.738 5.636 7.582 6.48 8.117 6.976 c 8.652 7.472 9.496 8.316
 9.992 8.851 c 10.488 9.386 11.332 10.23 11.867 10.726 c 12.402 11.222 13.246
 12.066 13.742 12.601 c 14.238 13.136 15.082 13.98 15.617 14.476 c 16.152
 14.972 16.996 15.816 17.492 16.351 c 17.988 16.886 18.832 17.73 19.367 
18.226 c 19.902 18.722 20.746 19.566 21.242 20.101 c 21.738 20.636 22.582
 21.48 23.117 21.976 c 23.652 22.472 24.496 23.316 24.992 23.851 c 25.488
 24.386 26.332 25.23 26.867 25.726 c 27.402 26.222 28.246 27.066 28.742 
27.601 c 29.238 28.136 30.082 28.98 30.617 29.476 c 31.152 29.972 31.996
 30.816 32.492 31.351 c 32.988 31.886 33.832 32.73 34.367 33.226 c 34.902
 33.722 35.746 34.566 36.242 35.101 c 36.738 35.636 37.582 36.48 38.117 
36.976 c 38.652 37.472 39.496 38.316 39.992 38.851 c 40.488 39.386 41.332
 40.23 41.867 40.726 c 42.402 41.222 43.246 42.066 43.742 42.601 c 44.238
 43.136 45.082 43.98 45.617 44.476 c 46.152 44.972 46.996 45.808 47.492 
46.339 c 50.707 49.777 50.906 50.249 49.145 50.249 c 48.523 50.249 48.02
 50.55 48.02 50.917 c 48.02 51.285 46.836 51.804 45.395 52.078 c 43.949 
52.347 42.77 52.89 42.77 53.285 c 42.77 53.679 42.262 53.999 41.645 53.999
 c 41.023 53.999 40.52 54.3 40.52 54.667 c 40.52 55.035 39.336 55.554 37.895
 55.828 c 36.449 56.097 35.27 56.64 35.27 57.035 c 35.27 57.429 34.762 57.749
 34.145 57.749 c 33.523 57.749 33.02 58.05 33.02 58.417 c 33.02 58.785 31.836
 59.304 30.395 59.578 c 28.949 59.847 27.77 60.39 27.77 60.785 c 27.77 61.179
 27.262 61.499 26.645 61.499 c 26.023 61.499 25.52 61.8 25.52 62.167 c 25.52
 62.535 24.336 63.054 22.895 63.328 c 21.449 63.597 20.27 64.14 20.27 64.535
 c 20.27 64.929 19.762 65.249 19.145 65.249 c 18.523 65.249 18.02 65.55 
18.02 65.917 c 18.02 66.285 16.836 66.804 15.395 67.078 c 13.949 67.347 
12.77 67.89 12.77 68.285 c 12.77 68.679 12.262 68.999 11.645 68.999 c 11.023
 68.999 10.52 69.3 10.52 69.667 c 10.52 70.035 9.336 70.554 7.895 70.828
 c 6.449 71.097 5.27 71.64 5.27 72.035 c 5.27 72.429 4.762 72.749 4.145 
72.749 c 3.523 72.749 3.02 73.089 3.02 73.499 c 3.02 73.914 2.344 74.249
 1.52 74.249 c 0.023 74.249 0.02 74.749 0.02 262.124 c 0.02 386.874 0.27
 449.999 0.77 449.999 c 1.18 449.999 1.52 450.507 1.52 451.124 c 1.52 451.746
 1.84 452.249 2.234 452.249 c 2.629 452.249 3.172 453.433 3.441 454.874 
c 3.715 456.32 4.234 457.499 4.602 457.499 c 4.969 457.499 5.27 458.007 
5.27 458.624 c 5.27 459.246 5.59 459.749 5.984 459.749 c 6.379 459.749 6.922
 460.933 7.191 462.374 c 7.465 463.82 7.984 464.999 8.352 464.999 c 8.719
 464.999 9.02 465.507 9.02 466.124 c 9.02 466.746 9.34 467.249 9.734 467.249
 c 10.129 467.249 10.672 468.433 10.941 469.874 c 11.215 471.32 11.734 472.499
 12.102 472.499 c 12.469 472.499 12.77 473.007 12.77 473.624 c 12.77 474.246
 13.09 474.749 13.484 474.749 c 13.879 474.749 14.422 475.933 14.691 477.374
 c 14.965 478.82 15.484 479.999 15.852 479.999 c 16.219 479.999 16.52 480.507
 16.52 481.124 c 16.52 481.746 16.84 482.249 17.234 482.249 c 17.629 482.249
 18.172 483.433 18.441 484.874 c 18.715 486.32 19.234 487.499 19.602 487.499
 c 19.969 487.499 20.27 488.007 20.27 488.624 c 20.27 489.246 20.59 489.749
 20.984 489.749 c 21.379 489.749 21.922 490.933 22.191 492.374 c 22.465 
493.82 22.984 494.999 23.352 494.999 c 23.719 494.999 24.02 495.507 24.02
 496.124 c 24.02 496.746 24.34 497.249 24.734 497.249 c 25.129 497.249 25.672
 498.433 25.941 499.874 c 26.215 501.32 26.734 502.499 27.102 502.499 c 
27.469 502.499 27.77 503.007 27.77 503.624 c 27.77 504.246 28.09 504.749
 28.484 504.749 c 28.879 504.749 29.422 505.933 29.691 507.374 c 29.965 
508.82 30.484 509.999 30.852 509.999 c 31.219 509.999 31.52 510.507 31.52
 511.124 c 31.52 511.746 31.84 512.249 32.234 512.249 c 32.629 512.249 33.172
 513.433 33.441 514.874 c 33.715 516.32 34.234 517.499 34.602 517.499 c 
34.969 517.499 35.27 517.98 35.27 518.562 c 35.27 519.148 35.691 519.765
 36.207 519.937 c 37.48 520.363 37.48 528.14 36.207 528.562 c 35.691 528.734
 35.27 529.523 35.27 530.312 c 35.27 531.105 34.957 531.749 34.578 531.749
 c 34.199 531.749 33.664 532.765 33.395 533.999 c 33.121 535.238 32.59 536.249
 32.207 536.249 c 31.828 536.249 31.52 536.925 31.52 537.749 c 31.52 538.578
 31.207 539.249 30.828 539.249 c 30.449 539.249 29.914 540.265 29.645 541.499
 c 29.371 542.738 28.84 543.749 28.457 543.749 c 28.078 543.749 27.77 544.425
 27.77 545.249 c 27.77 546.078 27.457 546.749 27.078 546.749 c 26.699 546.749
 26.164 547.765 25.895 548.999 c 25.621 550.238 25.09 551.249 24.707 551.249
 c 24.328 551.249 24.02 551.925 24.02 552.749 c 24.02 553.578 23.707 554.249
 23.328 554.249 c 22.949 554.249 22.414 555.265 22.145 556.499 c 21.871 
557.738 21.34 558.749 20.957 558.749 c 20.578 558.749 20.27 559.425 20.27
 560.249 c 20.27 561.078 19.957 561.749 19.578 561.749 c 19.199 561.749 
18.664 562.765 18.395 563.999 c 18.121 565.238 17.59 566.249 17.207 566.249
 c 16.828 566.249 16.52 566.925 16.52 567.749 c 16.52 568.578 16.207 569.249
 15.828 569.249 c 15.449 569.249 14.914 570.265 14.645 571.499 c 14.371 
572.738 13.84 573.749 13.457 573.749 c 13.078 573.749 12.77 574.425 12.77
 575.249 c 12.77 576.078 12.457 576.749 12.078 576.749 c 11.699 576.749 
11.164 577.765 10.895 578.999 c 10.621 580.238 10.09 581.249 9.707 581.249
 c 9.328 581.249 9.02 581.925 9.02 582.749 c 9.02 583.578 8.707 584.249 
8.328 584.249 c 7.949 584.249 7.414 585.265 7.145 586.499 c 6.871 587.738
 6.34 588.749 5.957 588.749 c 5.578 588.749 5.27 589.425 5.27 590.249 c 
5.27 591.078 4.957 591.749 4.578 591.749 c 4.199 591.749 3.664 592.765 3.395
 593.999 c 3.121 595.238 2.59 596.249 2.207 596.249 c 1.828 596.249 1.52
 596.777 1.52 597.421 c 1.52 598.062 12.5 587.601 25.922 574.171 c 39.348
 560.742 50.637 549.749 51.016 549.749 c 51.391 549.749 51.922 550.933 52.191
 552.374 c 52.465 553.82 52.984 554.999 53.352 554.999 c 53.719 554.999 
54.02 555.507 54.02 556.124 c 54.02 556.746 54.34 557.249 54.734 557.249
 c 55.129 557.249 55.672 558.433 55.941 559.874 c 56.215 561.32 56.734 562.499
 57.102 562.499 c 57.469 562.499 57.77 563.007 57.77 563.624 c 57.77 564.246
 58.09 564.749 58.484 564.749 c 58.879 564.749 59.422 565.933 59.691 567.374
 c 59.965 568.82 60.484 569.999 60.852 569.999 c 61.219 569.999 61.52 570.507
 61.52 571.124 c 61.52 571.746 61.84 572.249 62.234 572.249 c 62.629 572.249
 63.172 573.433 63.441 574.874 c 63.715 576.32 64.234 577.499 64.602 577.499
 c 64.969 577.499 65.27 578.007 65.27 578.624 c 65.27 579.246 65.59 579.749
 65.984 579.749 c 66.379 579.749 66.922 580.933 67.191 582.374 c 67.465 
583.82 67.984 584.999 68.352 584.999 c 68.719 584.999 69.02 585.507 69.02
 586.124 c 69.02 586.746 69.34 587.249 69.734 587.249 c 70.129 587.249 70.672
 588.433 70.941 589.874 c 71.215 591.32 71.734 592.499 72.102 592.499 c 
72.469 592.499 72.77 593.007 72.77 593.624 c 72.77 594.246 73.09 594.749
 73.484 594.749 c 73.879 594.749 74.422 595.933 74.691 597.374 c 75.184 
599.999 l 262.789 600.003 l 450.395 600.003 l 450.191 562.406 l 449.992 
524.808 l 452.441 525.296 l 453.789 525.566 455.004 526.117 455.145 526.519
 c 455.281 526.921 455.871 527.249 456.457 527.249 c 457.039 527.249 457.52
 527.55 457.52 527.917 c 457.52 528.285 458.699 528.804 460.145 529.078 
c 461.586 529.347 462.77 529.89 462.77 530.285 c 462.77 530.679 463.273 
530.999 463.895 530.999 c 464.512 530.999 465.02 531.3 465.02 531.667 c 
465.02 532.035 466.199 532.554 467.645 532.828 c 469.086 533.097 470.27 
533.64 470.27 534.035 c 470.27 534.429 470.773 534.749 471.395 534.749 c
 472.012 534.749 472.52 535.05 472.52 535.417 c 472.52 535.785 473.699 536.304
 475.145 536.578 c 476.586 536.847 477.77 537.39 477.77 537.785 c 477.77
 538.179 478.273 538.499 478.895 538.499 c 479.512 538.499 480.02 538.8 
480.02 539.167 c 480.02 539.535 481.199 540.054 482.645 540.328 c 484.086
 540.597 485.27 541.14 485.27 541.535 c 485.27 541.929 485.773 542.249 486.395
 542.249 c 487.012 542.249 487.52 542.55 487.52 542.917 c 487.52 543.285
 488.699 543.804 490.145 544.078 c 491.586 544.347 492.77 544.89 492.77 
545.285 c 492.77 545.679 493.273 545.999 493.895 545.999 c 494.512 545.999
 495.02 546.3 495.02 546.667 c 495.02 547.035 496.199 547.554 497.645 547.828
 c 499.086 548.097 500.27 548.628 500.27 549.003 c 500.27 549.382 489.281
 560.671 475.848 574.097 c 462.418 587.519 451.957 598.499 452.598 598.499
 c 453.242 598.499 453.77 598.191 453.77 597.812 c 453.77 597.433 454.781
 596.898 456.02 596.624 c 457.254 596.355 458.27 595.82 458.27 595.441 c
 458.27 595.062 458.941 594.749 459.77 594.749 c 460.594 594.749 461.27 
594.441 461.27 594.062 c 461.27 593.683 462.281 593.148 463.52 592.874 c
 464.754 592.605 465.77 592.07 465.77 591.691 c 465.77 591.312 466.441 590.999
 467.27 590.999 c 468.094 590.999 468.77 590.691 468.77 590.312 c 468.77
 589.933 469.781 589.398 471.02 589.124 c 472.254 588.855 473.27 588.32 
473.27 587.941 c 473.27 587.562 473.941 587.249 474.77 587.249 c 475.594
 587.249 476.27 586.941 476.27 586.562 c 476.27 586.183 477.281 585.648 
478.52 585.374 c 479.754 585.105 480.77 584.57 480.77 584.191 c 480.77 583.812
 481.441 583.499 482.27 583.499 c 483.094 583.499 483.77 583.191 483.77 
582.812 c 483.77 582.433 484.781 581.898 486.02 581.624 c 487.254 581.355
 488.27 580.82 488.27 580.441 c 488.27 580.062 488.941 579.749 489.77 579.749
 c 490.594 579.749 491.27 579.441 491.27 579.062 c 491.27 578.683 492.281
 578.148 493.52 577.874 c 494.754 577.605 495.77 577.07 495.77 576.691 c
 495.77 576.312 496.441 575.999 497.27 575.999 c 498.094 575.999 498.77 
575.691 498.77 575.312 c 498.77 574.933 499.781 574.398 501.02 574.124 c
 502.254 573.855 503.27 573.32 503.27 572.941 c 503.27 572.562 503.941 572.249
 504.77 572.249 c 505.594 572.249 506.27 571.941 506.27 571.562 c 506.27
 571.183 507.281 570.648 508.52 570.374 c 509.754 570.105 510.77 569.57 
510.77 569.191 c 510.77 568.812 511.441 568.499 512.27 568.499 c 513.094
 568.499 513.77 568.191 513.77 567.812 c 513.77 567.433 514.781 566.898 
516.02 566.624 c 517.254 566.355 518.27 565.82 518.27 565.441 c 518.27 565.062
 518.914 564.749 519.707 564.749 c 520.496 564.749 521.285 564.328 521.457
 563.812 c 521.652 563.218 523.234 562.874 525.77 562.874 c 528.301 562.874
 529.883 563.218 530.082 563.812 c 530.254 564.328 530.871 564.749 531.457
 564.749 c 532.039 564.749 532.52 565.089 532.52 565.499 c 532.52 565.914
 533.055 566.249 533.715 566.249 c 535.039 566.249 539.5 568.554 539.895
 569.437 c 540.031 569.749 540.652 569.999 541.277 569.999 c 542.555 569.999
 547.008 572.324 547.395 573.187 c 547.531 573.499 548.152 573.749 548.777
 573.749 c 550.055 573.749 554.508 576.074 554.895 576.937 c 555.031 577.249
 555.594 577.499 556.145 577.499 c 557.102 577.499 561.734 579.695 562.516
 580.523 c 562.723 580.738 564.41 581.574 566.27 582.374 c 568.125 583.179
 569.813 584.023 570.02 584.249 c 570.223 584.48 571.91 585.324 573.77 586.124
 c 575.625 586.929 577.313 587.761 577.52 587.98 c 577.723 588.199 580.254
 589.558 583.145 590.999 c 586.031 592.445 588.504 593.878 588.645 594.187
 c 588.781 594.499 589.539 594.749 590.332 594.749 c 591.121 594.749 591.77
 595.062 591.77 595.441 c 591.77 595.82 592.781 596.355 594.02 596.624 c
 595.254 596.898 596.27 597.433 596.27 597.812 c 596.27 598.191 596.914 
598.499 597.707 598.499 c 598.496 598.499 599.313 598.921 599.52 599.437
 c 599.809 600.152 599.914 600.156 599.957 599.464 c 599.992 598.96 589.051
 587.593 575.645 574.203 c 562.238 560.808 551.27 549.519 551.27 549.113
 c 551.27 548.703 552.281 548.148 553.52 547.874 c 554.754 547.605 555.77
 547.07 555.77 546.691 c 555.77 546.312 556.441 545.999 557.27 545.999 c
 558.094 545.999 558.77 545.691 558.77 545.312 c 558.77 544.933 559.781 
544.398 561.02 544.124 c 562.254 543.855 563.27 543.32 563.27 542.941 c 
563.27 542.562 563.941 542.249 564.77 542.249 c 565.594 542.249 566.27 541.941
 566.27 541.562 c 566.27 541.183 567.281 540.648 568.52 540.374 c 569.754
 540.105 570.77 539.57 570.77 539.191 c 570.77 538.812 571.441 538.499 572.27
 538.499 c 573.094 538.499 573.77 538.191 573.77 537.812 c 573.77 537.433
 574.781 536.898 576.02 536.624 c 577.254 536.355 578.27 535.82 578.27 535.441
 c 578.27 535.062 578.941 534.749 579.77 534.749 c 580.594 534.749 581.27
 534.441 581.27 534.062 c 581.27 533.683 582.281 533.148 583.52 532.874 
c 584.754 532.605 585.77 532.07 585.77 531.691 c 585.77 531.312 586.441 
530.999 587.27 530.999 c 588.094 530.999 588.77 530.691 588.77 530.312 c
 588.77 529.933 589.781 529.398 591.02 529.124 c 592.254 528.855 593.27 
528.32 593.27 527.941 c 593.27 527.562 593.941 527.249 594.77 527.249 c 
595.594 527.249 596.27 526.949 596.27 526.581 c 596.27 526.214 597.113 525.703
 598.145 525.445 c 600.02 524.972 l 600.02 149.999 l 562.895 149.999 l 538.645
 149.999 525.77 149.742 525.77 149.249 c 525.77 148.839 526.105 148.499 
526.52 148.499 c 526.93 148.499 527.27 147.996 527.27 147.374 c 527.27 146.757
 527.566 146.249 527.934 146.249 c 528.301 146.249 528.824 145.07 529.094
 143.624 c 529.363 142.183 529.91 140.999 530.301 140.999 c 530.695 140.999
 531.02 140.496 531.02 139.874 c 531.02 139.257 531.316 138.749 531.684 
138.749 c 532.051 138.749 532.574 137.57 532.844 136.124 c 533.113 134.683
 533.66 133.499 534.051 133.499 c 534.445 133.499 534.77 132.996 534.77 
132.374 c 534.77 131.757 535.066 131.249 535.434 131.249 c 535.801 131.249
 536.324 130.07 536.594 128.624 c 536.863 127.183 537.41 125.999 537.801
 125.999 c 538.195 125.999 538.52 125.496 538.52 124.874 c 538.52 124.257
 538.816 123.749 539.184 123.749 c 539.551 123.749 540.074 122.57 540.344
 121.124 c 540.613 119.683 541.16 118.499 541.551 118.499 c 541.945 118.499
 542.27 117.996 542.27 117.374 c 542.27 116.757 542.566 116.249 542.934 
116.249 c 543.301 116.249 543.824 115.07 544.094 113.624 c 544.363 112.183
 544.91 110.999 545.301 110.999 c 545.695 110.999 546.02 110.496 546.02 
109.874 c 546.02 109.257 546.316 108.749 546.684 108.749 c 547.051 108.749
 547.574 107.57 547.844 106.124 c 548.113 104.683 548.66 103.499 549.051
 103.499 c 549.445 103.499 549.77 102.996 549.77 102.374 c 549.77 100.902
 552.438 100.929 553.676 102.414 c 554.207 103.05 555.082 103.98 555.617
 104.476 c 556.152 104.972 556.996 105.816 557.492 106.351 c 557.988 106.886
 558.832 107.73 559.367 108.226 c 559.902 108.722 560.746 109.566 561.242
 110.101 c 561.738 110.636 562.582 111.48 563.117 111.976 c 563.652 112.472
 564.496 113.316 564.992 113.851 c 565.488 114.386 566.332 115.23 566.867
 115.726 c 567.402 116.222 568.246 117.066 568.742 117.601 c 569.238 118.136
 570.082 118.98 570.617 119.476 c 571.152 119.972 571.996 120.816 572.492
 121.351 c 572.988 121.886 573.832 122.73 574.367 123.226 c 574.902 123.722
 575.746 124.566 576.242 125.101 c 576.738 125.636 577.578 126.48 578.105
 126.976 c 579.332 128.121 580.648 129.437 581.793 130.664 c 582.289 131.195
 583.133 132.031 583.668 132.527 c 584.203 133.023 585.047 133.867 585.543
 134.402 c 586.039 134.937 586.883 135.781 587.418 136.277 c 587.953 136.773
 588.797 137.617 589.293 138.152 c 589.789 138.687 590.633 139.531 591.168
 140.027 c 591.703 140.523 592.547 141.367 593.043 141.902 c 593.539 142.437
 594.383 143.281 594.918 143.777 c 595.453 144.273 596.297 145.117 596.793
 145.652 c 597.289 146.187 598.219 147.062 598.855 147.593 c 599.84 148.414
 600.02 148.328 600.02 147.031 c 600.02 146.191 599.68 145.503 599.27 145.503
 c 598.855 145.503 598.52 144.828 598.52 144.003 c 598.52 143.175 598.207
 142.503 597.828 142.503 c 597.449 142.503 596.914 141.488 596.645 140.253
 c 596.371 139.015 595.84 138.003 595.457 138.003 c 595.078 138.003 594.77
 137.328 594.77 136.503 c 594.77 135.675 594.457 135.003 594.078 135.003
 c 593.699 135.003 593.164 133.988 592.895 132.753 c 592.621 131.515 592.09
 130.503 591.707 130.503 c 591.328 130.503 591.02 129.828 591.02 129.003
 c 591.02 128.175 590.707 127.503 590.328 127.503 c 589.949 127.503 589.414
 126.488 589.145 125.253 c 588.871 124.015 588.34 123.003 587.957 123.003
 c 587.578 123.003 587.27 122.328 587.27 121.503 c 587.27 120.675 586.957
 120.003 586.578 120.003 c 586.199 120.003 585.664 118.988 585.395 117.753
 c 585.121 116.515 584.59 115.503 584.207 115.503 c 583.828 115.503 583.52
 114.828 583.52 114.003 c 583.52 113.175 583.207 112.503 582.828 112.503
 c 582.449 112.503 581.914 111.488 581.645 110.253 c 581.371 109.015 580.84
 108.003 580.457 108.003 c 580.078 108.003 579.77 107.328 579.77 106.503
 c 579.77 105.675 579.457 105.003 579.078 105.003 c 578.699 105.003 578.164
 103.988 577.895 102.753 c 577.621 101.515 577.09 100.503 576.707 100.503
 c 576.328 100.503 576.02 99.828 576.02 99.003 c 576.02 98.175 575.707 97.503
 575.328 97.503 c 574.949 97.503 574.414 96.488 574.145 95.253 c 573.871
 94.015 573.34 93.003 572.957 93.003 c 572.578 93.003 572.27 92.328 572.27
 91.503 c 572.27 90.675 571.957 90.003 571.578 90.003 c 571.199 90.003 570.664
 88.988 570.395 87.753 c 570.121 86.515 569.59 85.503 569.207 85.503 c 568.828
 85.503 568.52 84.828 568.52 84.003 c 568.52 83.175 568.207 82.503 567.828
 82.503 c 567.449 82.503 566.914 81.488 566.645 80.253 c 566.371 79.015 
565.84 78.003 565.457 78.003 c 565.078 78.003 564.77 77.355 564.77 76.562
 c 564.77 75.773 564.348 74.929 563.832 74.691 c 563.082 74.339 563.082 
74.164 563.832 73.812 c 564.348 73.574 564.77 72.898 564.77 72.312 c 564.77
 71.73 565.066 71.253 565.434 71.253 c 565.801 71.253 566.324 70.07 566.594
 68.624 c 566.863 67.183 567.41 66.003 567.801 66.003 c 568.195 66.003 568.52
 65.496 568.52 64.874 c 568.52 64.257 568.816 63.753 569.184 63.753 c 569.551
 63.753 570.074 62.57 570.344 61.124 c 570.613 59.683 571.16 58.503 571.551
 58.503 c 571.945 58.503 572.27 57.996 572.27 57.374 c 572.27 56.757 572.566
 56.253 572.934 56.253 c 573.301 56.253 573.824 55.07 574.094 53.624 c 574.363
 52.183 574.91 51.003 575.301 51.003 c 575.695 51.003 576.02 50.496 576.02
 49.874 c 576.02 49.257 576.316 48.753 576.684 48.753 c 577.051 48.753 577.574
 47.57 577.844 46.124 c 578.113 44.683 578.66 43.503 579.051 43.503 c 579.445
 43.503 579.77 42.996 579.77 42.374 c 579.77 41.757 580.066 41.253 580.434
 41.253 c 580.801 41.253 581.324 40.07 581.594 38.624 c 581.863 37.183 582.41
 36.003 582.801 36.003 c 583.195 36.003 583.52 35.496 583.52 34.874 c 583.52
 34.257 583.816 33.753 584.184 33.753 c 584.551 33.753 585.074 32.57 585.344
 31.124 c 585.613 29.683 586.16 28.503 586.551 28.503 c 586.945 28.503 587.27
 27.996 587.27 27.374 c 587.27 26.757 587.566 26.253 587.934 26.253 c 588.301
 26.253 588.824 25.07 589.094 23.624 c 589.363 22.183 589.91 21.003 590.301
 21.003 c 590.695 21.003 591.02 20.496 591.02 19.874 c 591.02 19.257 591.316
 18.753 591.684 18.753 c 592.051 18.753 592.574 17.57 592.844 16.124 c 593.113
 14.683 593.66 13.503 594.051 13.503 c 594.445 13.503 594.77 12.996 594.77
 12.374 c 594.77 11.757 595.066 11.253 595.434 11.253 c 595.801 11.253 596.324
 10.07 596.594 8.624 c 596.863 7.183 597.41 6.003 597.801 6.003 c 598.195
 6.003 598.52 5.496 598.52 4.874 c 598.52 4.257 598.855 3.753 599.27 3.753
 c 599.68 3.753 600.02 2.89 600.02 1.835 c 600.02 0.238 595.988 3.949 575.988
 23.96 c 562.773 37.183 551.469 48.003 550.863 48.003 c 550.262 48.003 549.77
 47.328 549.77 46.503 c 549.77 45.675 549.457 45.003 549.078 45.003 c 548.699
 45.003 548.164 43.988 547.895 42.753 c 547.621 41.515 547.09 40.503 546.707
 40.503 c 546.328 40.503 546.02 39.828 546.02 39.003 c 546.02 38.175 545.707
 37.503 545.328 37.503 c 544.949 37.503 544.414 36.488 544.145 35.253 c 
543.871 34.015 543.34 33.003 542.957 33.003 c 542.578 33.003 542.27 32.328
 542.27 31.503 c 542.27 30.675 541.957 30.003 541.578 30.003 c 541.199 30.003
 540.664 28.988 540.395 27.753 c 540.121 26.515 539.59 25.503 539.207 25.503
 c 538.828 25.503 538.52 24.828 538.52 24.003 c 538.52 23.175 538.207 22.503
 537.828 22.503 c 537.449 22.503 536.914 21.488 536.645 20.253 c 536.371
 19.015 535.84 18.003 535.457 18.003 c 535.078 18.003 534.77 17.328 534.77
 16.503 c 534.77 15.675 534.457 15.003 534.078 15.003 c 533.699 15.003 533.164
 13.988 532.895 12.753 c 532.621 11.515 532.09 10.503 531.707 10.503 c 531.328
 10.503 531.02 9.828 531.02 9.003 c 531.02 8.175 530.707 7.503 530.328 7.503
 c 529.949 7.503 529.414 6.488 529.145 5.253 c 528.871 4.015 528.34 3.003
 527.957 3.003 c 527.578 3.003 527.27 2.328 527.27 1.503 c 527.27 0.023 
526.77 0.003 489.363 0.003 c 448.867 0.003 450.703 -0.169 454.367 3.226 
c 454.902 3.722 455.746 4.566 456.242 5.101 c 456.738 5.636 457.582 6.48
 458.117 6.976 c 458.652 7.472 459.496 8.316 459.992 8.851 c 460.488 9.386
 461.332 10.23 461.867 10.726 c 462.402 11.222 463.246 12.066 463.742 12.601
 c 464.238 13.136 465.082 13.98 465.617 14.476 c 466.152 14.972 466.996 
15.816 467.492 16.351 c 467.988 16.886 468.832 17.73 469.367 18.226 c 469.902
 18.722 470.746 19.566 471.242 20.101 c 471.738 20.636 472.582 21.48 473.117
 21.976 c 473.652 22.472 474.496 23.316 474.992 23.851 c 475.488 24.386 
476.332 25.23 476.867 25.726 c 477.402 26.222 478.246 27.066 478.742 27.601
 c 479.238 28.136 480.082 28.98 480.617 29.476 c 481.152 29.972 481.996 
30.816 482.492 31.351 c 482.988 31.886 483.832 32.73 484.367 33.226 c 484.902
 33.722 485.746 34.566 486.242 35.101 c 486.738 35.636 487.582 36.48 488.117
 36.976 c 488.652 37.472 489.496 38.316 489.992 38.851 c 490.488 39.386 
491.332 40.23 491.867 40.726 c 492.402 41.222 493.246 42.066 493.742 42.601
 c 494.238 43.136 495.082 43.98 495.617 44.476 c 496.152 44.972 496.996 
45.816 497.492 46.351 c 497.988 46.886 498.832 47.73 499.367 48.226 c 499.902
 48.722 500.746 49.566 501.242 50.101 c 501.738 50.636 502.582 51.48 503.117
 51.976 c 503.652 52.472 504.496 53.316 504.992 53.851 c 505.488 54.386 
506.332 55.23 506.867 55.726 c 507.402 56.222 508.246 57.066 508.742 57.601
 c 509.238 58.136 510.082 58.98 510.617 59.476 c 511.152 59.972 511.996 
60.816 512.492 61.351 c 512.988 61.886 513.832 62.73 514.367 63.226 c 514.902
 63.722 515.746 64.566 516.242 65.101 c 516.738 65.636 517.582 66.48 518.117
 66.976 c 518.652 67.472 519.496 68.316 519.992 68.851 c 520.914 69.847 
521.984 70.871 523.918 72.617 c 524.523 73.164 525.02 73.906 525.02 74.265
 c 525.02 74.917 451.012 149.253 450.363 149.253 c 450.172 149.253 450.02
 115.671 450.02 74.624 c 450.02 0.003 l 298.895 0.003 l 198.645 0.003 147.77
 0.253 147.77 0.753 c 147.77 1.164 147.262 1.503 146.645 1.503 c 146.023
 1.503 145.52 1.8 145.52 2.167 c 145.52 2.535 144.336 3.054 142.895 3.328
 c 141.449 3.597 140.27 4.14 140.27 4.535 c 140.27 4.929 139.762 5.253 139.145
 5.253 c 138.523 5.253 138.02 5.55 138.02 5.917 c 138.02 6.285 136.836 6.804
 135.395 7.078 c 133.949 7.347 132.77 7.89 132.77 8.285 c 132.77 8.679 132.262
 9.003 131.645 9.003 c 131.023 9.003 130.52 9.3 130.52 9.667 c 130.52 10.035
 129.336 10.554 127.895 10.828 c 126.449 11.097 125.27 11.64 125.27 12.035
 c 125.27 12.429 124.762 12.753 124.145 12.753 c 123.523 12.753 123.02 13.05
 123.02 13.417 c 123.02 13.785 121.836 14.304 120.395 14.578 c 118.949 14.847
 117.77 15.39 117.77 15.785 c 117.77 16.179 117.262 16.503 116.645 16.503
 c 116.023 16.503 115.52 16.8 115.52 17.167 c 115.52 17.535 114.336 18.054
 112.895 18.328 c 111.449 18.597 110.27 19.14 110.27 19.535 c 110.27 19.929
 109.762 20.253 109.145 20.253 c 108.523 20.253 108.02 20.55 108.02 20.917
 c 108.02 21.285 106.836 21.804 105.395 22.078 c 103.949 22.347 102.77 22.89
 102.77 23.285 c 102.77 23.679 102.262 24.003 101.645 24.003 c 101.023 24.003
 100.52 24.3 100.52 24.667 c 100.52 25.035 99.336 25.554 97.895 25.828 c
 96.449 26.097 95.27 26.64 95.27 27.035 c 95.27 27.429 94.762 27.753 94.145
 27.753 c 93.523 27.753 93.02 28.05 93.02 28.417 c 93.02 28.785 91.836 29.304
 90.395 29.578 c 88.949 29.847 87.77 30.39 87.77 30.785 c 87.77 31.179 87.262
 31.503 86.645 31.503 c 86.023 31.503 85.52 31.8 85.52 32.167 c 85.52 32.535
 84.336 33.054 82.895 33.328 c 81.449 33.597 80.27 34.14 80.27 34.535 c 
80.27 34.929 79.762 35.253 79.145 35.253 c 78.523 35.253 78.02 35.589 78.02
 36.003 c 78.02 36.414 77.004 36.753 75.77 36.753 c 74.531 36.753 73.52 
36.414 73.52 36.003 c 73.52 35.589 73.012 35.253 72.395 35.253 c 71.773 
35.253 71.27 34.953 71.27 34.585 c 71.27 34.218 70.086 33.699 68.645 33.425
 c 67.199 33.156 66.02 32.613 66.02 32.218 c 66.02 31.824 65.512 31.503 
64.895 31.503 c 64.273 31.503 63.77 31.203 63.77 30.835 c 63.77 30.468 62.586
 29.949 61.145 29.675 c 59.699 29.406 58.52 28.863 58.52 28.468 c 58.52 
28.074 58.012 27.753 57.395 27.753 c 56.773 27.753 56.27 27.453 56.27 27.085
 c 56.27 26.718 55.086 26.199 53.645 25.925 c 52.199 25.656 51.02 25.113
 51.02 24.718 c 51.02 24.324 50.512 24.003 49.895 24.003 c 49.273 24.003
 48.77 23.703 48.77 23.335 c 48.77 22.968 47.586 22.449 46.145 22.175 c 
44.699 21.906 43.52 21.363 43.52 20.968 c 43.52 20.574 43.012 20.253 42.395
 20.253 c 41.773 20.253 41.27 19.953 41.27 19.585 c 41.27 19.218 40.086 
18.699 38.645 18.425 c 37.199 18.156 36.02 17.613 36.02 17.218 c 36.02 16.824
 35.512 16.503 34.895 16.503 c 34.273 16.503 33.77 16.203 33.77 15.835 c
 33.77 15.468 32.586 14.949 31.145 14.675 c 29.699 14.406 28.52 13.863 28.52
 13.468 c 28.52 13.074 28.012 12.753 27.395 12.753 c 26.773 12.753 26.27
 12.453 26.27 12.085 c 26.27 11.718 25.086 11.199 23.645 10.925 c 22.199
 10.656 21.02 10.113 21.02 9.718 c 21.02 9.324 20.512 9.003 19.895 9.003
 c 19.273 9.003 18.77 8.703 18.77 8.335 c 18.77 7.968 17.586 7.449 16.145
 7.175 c 14.699 6.906 13.52 6.363 13.52 5.968 c 13.52 5.574 13.012 5.253
 12.395 5.253 c 11.773 5.253 11.27 4.953 11.27 4.585 c 11.27 4.218 10.086
 3.699 8.645 3.425 c 7.199 3.156 6.02 2.613 6.02 2.218 c 6.02 1.824 5.512
 1.503 4.895 1.503 c 4.273 1.503 3.77 1.164 3.77 0.753 c 3.77 0.339 3.25
 0.003 2.613 0.003 c 1.656 0.003 1.621 0.199 2.426 1.164 c h
150.02 37.499 m 150.02 61.499 149.758 74.249 149.27 74.249 c 148.855 74.249
 148.52 73.914 148.52 73.499 c 148.52 73.089 148.012 72.749 147.395 72.749
 c 146.773 72.749 146.27 72.453 146.27 72.085 c 146.27 71.718 145.086 71.195
 143.645 70.925 c 142.199 70.656 141.02 70.113 141.02 69.718 c 141.02 69.324
 140.512 68.999 139.895 68.999 c 139.273 68.999 138.77 68.703 138.77 68.335
 c 138.77 67.968 137.586 67.445 136.145 67.175 c 134.699 66.906 133.52 66.363
 133.52 65.968 c 133.52 65.574 133.012 65.249 132.395 65.249 c 131.773 65.249
 131.27 64.953 131.27 64.585 c 131.27 64.218 130.086 63.695 128.645 63.425
 c 127.199 63.156 126.02 62.613 126.02 62.218 c 126.02 61.824 125.512 61.499
 124.895 61.499 c 124.273 61.499 123.77 61.203 123.77 60.835 c 123.77 60.468
 122.586 59.945 121.145 59.675 c 119.699 59.406 118.52 58.863 118.52 58.468
 c 118.52 58.074 118.012 57.749 117.395 57.749 c 116.773 57.749 116.27 57.453
 116.27 57.085 c 116.27 56.718 115.086 56.195 113.645 55.925 c 112.199 55.656
 111.02 55.113 111.02 54.718 c 111.02 54.324 110.512 53.999 109.895 53.999
 c 109.273 53.999 108.77 53.703 108.77 53.335 c 108.77 52.968 107.586 52.445
 106.145 52.175 c 104.699 51.906 103.52 51.363 103.52 50.968 c 103.52 50.574
 102.984 50.249 102.332 50.249 c 101.676 50.249 101.281 49.828 101.449 49.312
 c 101.805 48.218 148.621 0.929 149.457 0.824 c 149.766 0.785 150.02 17.289
 150.02 37.499 c h
77.426 76.164 m 77.957 76.8 78.832 77.73 79.367 78.226 c 79.902 78.722 
80.746 79.566 81.242 80.101 c 81.738 80.636 82.582 81.48 83.117 81.976 c
 83.652 82.472 84.496 83.316 84.992 83.851 c 85.488 84.386 86.332 85.23 
86.867 85.726 c 87.402 86.222 88.246 87.066 88.742 87.601 c 89.238 88.136
 90.082 88.98 90.617 89.476 c 91.152 89.972 91.996 90.816 92.492 91.351 
c 92.988 91.886 93.832 92.73 94.367 93.226 c 94.902 93.722 95.746 94.566
 96.242 95.101 c 96.738 95.636 97.582 96.48 98.117 96.976 c 98.652 97.472
 99.496 98.316 99.992 98.851 c 100.488 99.386 101.332 100.23 101.867 100.726
 c 102.402 101.222 103.246 102.066 103.742 102.601 c 104.238 103.136 105.082
 103.98 105.617 104.476 c 106.152 104.972 106.996 105.816 107.492 106.351
 c 107.988 106.886 108.832 107.73 109.367 108.226 c 109.902 108.722 110.746
 109.566 111.242 110.101 c 111.738 110.636 112.582 111.48 113.117 111.976
 c 113.652 112.472 114.496 113.316 114.992 113.851 c 115.488 114.386 116.332
 115.23 116.867 115.726 c 117.402 116.222 118.246 117.066 118.742 117.601
 c 119.238 118.136 120.078 118.98 120.605 119.476 c 121.832 120.621 123.148
 121.937 124.293 123.164 c 124.789 123.691 125.633 124.531 126.168 125.027
 c 126.703 125.523 127.547 126.367 128.043 126.902 c 128.539 127.437 129.383
 128.281 129.918 128.777 c 130.453 129.273 131.297 130.117 131.793 130.652
 c 132.289 131.187 133.133 132.031 133.668 132.527 c 134.203 133.023 135.047
 133.867 135.543 134.402 c 136.039 134.937 136.883 135.781 137.418 136.277
 c 137.953 136.773 138.797 137.617 139.293 138.152 c 139.789 138.687 140.633
 139.531 141.168 140.027 c 141.703 140.523 142.547 141.367 143.043 141.902
 c 143.539 142.437 144.383 143.281 144.918 143.777 c 145.453 144.273 146.297
 145.117 146.793 145.652 c 147.289 146.187 148.219 147.062 148.855 147.593
 c 149.496 148.124 150.02 148.886 150.02 149.281 c 150.02 149.738 122.602
 149.999 75.395 149.999 c 34.348 149.999 0.77 149.847 0.77 149.656 c 0.77
 148.992 75.109 74.999 75.777 74.999 c 76.152 74.999 76.895 75.523 77.426
 76.164 c h
74.594 451.687 m 74.305 452.617 73.777 453.488 73.418 453.624 c 73.063 
453.765 72.77 454.523 72.77 455.312 c 72.77 456.105 72.457 456.749 72.078
 456.749 c 71.699 456.749 71.164 457.765 70.895 458.999 c 70.621 460.238
 70.09 461.249 69.707 461.249 c 69.328 461.249 69.02 461.925 69.02 462.749
 c 69.02 463.578 68.707 464.249 68.328 464.249 c 67.949 464.249 67.414 465.265
 67.145 466.499 c 66.871 467.738 66.34 468.749 65.957 468.749 c 65.578 468.749
 65.27 469.425 65.27 470.249 c 65.27 471.078 64.957 471.749 64.578 471.749
 c 64.199 471.749 63.664 472.765 63.395 473.999 c 63.121 475.238 62.59 476.249
 62.207 476.249 c 61.828 476.249 61.52 476.925 61.52 477.749 c 61.52 478.578
 61.207 479.249 60.828 479.249 c 60.449 479.249 59.914 480.265 59.645 481.499
 c 59.371 482.738 58.84 483.749 58.457 483.749 c 58.078 483.749 57.77 484.425
 57.77 485.249 c 57.77 486.078 57.457 486.749 57.078 486.749 c 56.699 486.749
 56.164 487.765 55.895 488.999 c 55.621 490.238 55.09 491.249 54.707 491.249
 c 54.328 491.249 54.02 491.925 54.02 492.749 c 54.02 493.578 53.707 494.249
 53.328 494.249 c 52.949 494.249 52.414 495.265 52.145 496.499 c 51.871 
497.738 51.316 498.749 50.914 498.749 c 50.164 498.749 2.27 451.16 2.27 
450.414 c 2.27 450.187 18.66 449.999 38.695 449.999 c 75.117 449.999 l h
599.27 450.343 m 599.27 450.531 582.715 467.238 562.484 487.468 c 525.699
 524.253 l 488.984 487.542 l 468.789 467.351 452.27 450.644 452.27 450.417
 c 452.27 450.187 485.344 449.999 525.77 449.999 c 566.191 449.999 599.27
 450.156 599.27 450.343 c h
150.02 524.249 m 150.02 564.675 149.832 597.749 149.602 597.749 c 149.375
 597.749 132.668 581.23 112.477 561.035 c 75.766 524.32 l 112.328 487.609
 l 132.441 467.421 149.145 450.867 149.457 450.824 c 149.766 450.785 150.02
 483.828 150.02 524.249 c h
150.02 524.249 m f
Q Q
showpage
%%Trailer
end restore
%%EOF
